   0.0000000e+00   1.1642125e+00
   1.8006468e+03   1.1005978e+00
   3.6012936e+03   9.8990109e-01
   5.4019403e+03   8.3500130e-01
   7.2025871e+03   6.4754034e-01
   9.0032339e+03   4.4317592e-01
   1.0803881e+04   2.3988163e-01
   1.2604527e+04   5.1959184e-02
   1.4405174e+04  -1.1286681e-01
   1.6205821e+04  -2.5139441e-01
   1.8006468e+04  -3.6327154e-01
   1.9807115e+04  -4.3974628e-01
   2.1607761e+04  -4.6093871e-01
   2.3408408e+04  -4.1481621e-01
   2.5209055e+04  -3.0515053e-01
   2.7009702e+04  -1.4505711e-01
   2.8810349e+04   4.4544217e-02
   3.0610995e+04   2.4449321e-01
   3.2411642e+04   4.4095398e-01
   3.4212289e+04   6.2347841e-01
   3.6012936e+04   7.8531480e-01
   3.7813582e+04   9.2340992e-01
   3.9614229e+04   1.0377318e+00
   4.1414876e+04   1.1226631e+00
   4.3215523e+04   1.1649346e+00
   4.5016170e+04   1.1564447e+00
   4.6816816e+04   1.0986574e+00
   4.8617463e+04   9.9441473e-01
   5.0418110e+04   8.4668368e-01
   5.2218757e+04   6.6464181e-01
   5.4019404e+04   4.6557956e-01
   5.5820050e+04   2.6486006e-01
   5.7620697e+04   7.2329177e-02
   5.9421344e+04  -1.0503174e-01
   6.1221991e+04  -2.6165468e-01
   6.3022637e+04  -3.8696402e-01
   6.4823284e+04  -4.6319108e-01
   6.6623931e+04  -4.7271280e-01
   6.8424578e+04  -4.0283754e-01
   7.0225225e+04  -2.5584812e-01
   7.2025871e+04  -5.3362341e-02
   7.3826518e+04   1.7977062e-01
   7.5627165e+04   4.2093311e-01
   7.7427812e+04   6.5297603e-01
   7.9228458e+04   8.6612467e-01
   8.1029105e+04   1.0544512e+00
   8.2829752e+04   1.2145135e+00
   8.4630399e+04   1.3396329e+00
   8.6431046e+04   1.4183238e+00
   8.8231692e+04   1.4406253e+00
   9.0032339e+04   1.4008412e+00
   9.1832986e+04   1.2980580e+00
   9.3633633e+04   1.1376832e+00
   9.5434280e+04   9.3168538e-01
   9.7234926e+04   6.9851812e-01
   9.9035573e+04   4.5397820e-01
   1.0083622e+05   2.0789314e-01
   1.0263687e+05  -3.3102637e-02
   1.0443751e+05  -2.6382857e-01
   1.0623816e+05  -4.7283244e-01
   1.0803881e+05  -6.3928392e-01
   1.0983945e+05  -7.3891917e-01
   1.1164010e+05  -7.4827499e-01
   1.1344075e+05  -6.5895215e-01
   1.1524139e+05  -4.8426606e-01
   1.1704204e+05  -2.4884402e-01
   1.1884269e+05   1.4998469e-02
   1.2064333e+05   2.8103329e-01
   1.2244398e+05   5.3442930e-01
   1.2424463e+05   7.6706973e-01
   1.2604527e+05   9.7594873e-01
   1.2784592e+05   1.1550978e+00
   1.2964657e+05   1.2932719e+00
   1.3144722e+05   1.3796887e+00
   1.3324786e+05   1.4062741e+00
   1.3504851e+05   1.3684756e+00
   1.3684916e+05   1.2666608e+00
   1.3864980e+05   1.1071474e+00
   1.4045045e+05   9.0309738e-01
   1.4225110e+05   6.7007692e-01
   1.4405174e+05   4.2378325e-01
   1.4585239e+05   1.7391055e-01
   1.4765304e+05  -7.6634935e-02
   1.4945368e+05  -3.1880750e-01
   1.5125433e+05  -5.3243438e-01
   1.5305498e+05  -6.9054138e-01
   1.5485562e+05  -7.6247548e-01
   1.5665627e+05  -7.2902259e-01
   1.5845692e+05  -5.8992952e-01
   1.6025756e+05  -3.6216672e-01
   1.6205821e+05  -7.9562089e-02
   1.6385886e+05   2.2499393e-01
   1.6565950e+05   5.2624972e-01
   1.6746015e+05   8.0870039e-01
   1.6926080e+05   1.0672100e+00
   1.7106144e+05   1.2959584e+00
   1.7286209e+05   1.4848794e+00
   1.7466274e+05   1.6212553e+00
   1.7646338e+05   1.6909026e+00
   1.7826403e+05   1.6840043e+00
   1.8006468e+05   1.5982694e+00
   1.8186533e+05   1.4397602e+00
   1.8366597e+05   1.2235294e+00
   1.8546662e+05   9.6652733e-01
   1.8726727e+05   6.8490323e-01
   1.8906791e+05   3.9062380e-01
   1.9086856e+05   9.0344214e-02
   1.9266921e+05  -2.1011895e-01
   1.9446985e+05  -5.0198143e-01
   1.9627050e+05  -7.6242037e-01
   1.9807115e+05  -9.5207643e-01
   1.9987179e+05  -1.0343527e+00
   2.0167244e+05  -9.8579979e-01
   2.0347309e+05  -8.1107838e-01
   2.0527373e+05  -5.4742169e-01
   2.0707438e+05  -2.3497435e-01
   2.0887503e+05   9.3186605e-02
   2.1067567e+05   4.1463553e-01
   2.1247632e+05   7.1884261e-01
   2.1427697e+05   9.9698095e-01
   2.1607761e+05   1.2390032e+00
   2.1787826e+05   1.4341333e+00
   2.1967891e+05   1.5709815e+00
   2.2147955e+05   1.6381563e+00
   2.2328020e+05   1.6259736e+00
   2.2508085e+05   1.5330363e+00
   2.2688149e+05   1.3688331e+00
   2.2868214e+05   1.1480081e+00
   2.3048279e+05   8.8826459e-01
   2.3228344e+05   6.0472043e-01
   2.3408408e+05   3.0763717e-01
   2.3588473e+05   3.0650670e-03
   2.3768538e+05  -3.0449413e-01
   2.3948602e+05  -5.9760380e-01
   2.4128667e+05  -8.4145602e-01
   2.4308732e+05  -9.9657460e-01
   2.4488796e+05  -1.0265783e+00
   2.4668861e+05  -9.1820914e-01
   2.4848926e+05  -6.8919557e-01
   2.5028990e+05  -3.7425848e-01
   2.5209055e+05  -1.8995655e-02
   2.5389120e+05   3.4171138e-01
   2.5569184e+05   6.9053797e-01
   2.5749249e+05   1.0178022e+00
   2.5929314e+05   1.3174327e+00
   2.6109378e+05   1.5769795e+00
   2.6289443e+05   1.7759474e+00
   2.6469508e+05   1.8980231e+00
   2.6649572e+05   1.9349302e+00
   2.6829637e+05   1.8825190e+00
   2.7009702e+05   1.7414159e+00
   2.7189766e+05   1.5219340e+00
   2.7369831e+05   1.2450443e+00
   2.7549896e+05   9.3200772e-01
   2.7729960e+05   5.9983049e-01
   2.7910025e+05   2.5578274e-01
   2.8090090e+05  -1.0154865e-01
   2.8270155e+05  -4.6249627e-01
   2.8450219e+05  -7.9933970e-01
   2.8630284e+05  -1.0719369e+00
   2.8810349e+05  -1.2326893e+00
   2.8990413e+05  -1.2498051e+00
   2.9170478e+05  -1.1174237e+00
   2.9350543e+05  -8.5566675e-01
   2.9530607e+05  -5.0965786e-01
   2.9710672e+05  -1.2561506e-01
   2.9890737e+05   2.5839060e-01
   3.0070801e+05   6.2052078e-01
   3.0250866e+05   9.5615479e-01
   3.0430931e+05   1.2592765e+00
   3.0610995e+05   1.5170485e+00
   3.0791060e+05   1.7127175e+00
   3.0971125e+05   1.8277758e+00
   3.1151189e+05   1.8500356e+00
   3.1331254e+05   1.7773195e+00
   3.1511319e+05   1.6180148e+00
   3.1691383e+05   1.3906081e+00
   3.1871448e+05   1.1135159e+00
   3.2051513e+05   8.0192557e-01
   3.2231577e+05   4.6802823e-01
   3.2411642e+05   1.2073417e-01
   3.2591707e+05  -2.3399832e-01
   3.2771771e+05  -5.8866113e-01
   3.2951836e+05  -9.1315262e-01
   3.3131901e+05  -1.1522963e+00
   3.3311966e+05  -1.2582639e+00
   3.3492030e+05  -1.2045898e+00
   3.3672095e+05  -9.9874341e-01
   3.3852160e+05  -6.8322518e-01
   3.4032224e+05  -3.0128885e-01
   3.4212289e+05   1.1258580e-01
   3.4392354e+05   5.2864756e-01
   3.4572418e+05   9.2248909e-01
   3.4752483e+05   1.2802497e+00
   3.4932548e+05   1.5976300e+00
   3.5112612e+05   1.8621872e+00
   3.5292677e+05   2.0503085e+00
   3.5472742e+05   2.1422999e+00
   3.5652806e+05   2.1280811e+00
   3.5832871e+05   2.0095165e+00
   3.6012936e+05   1.8007890e+00
   3.6193000e+05   1.5197375e+00
   3.6373065e+05   1.1854157e+00
   3.6553130e+05   8.1681747e-01
   3.6733194e+05   4.3099351e-01
   3.6913259e+05   3.6412733e-02
   3.7093324e+05  -3.6517169e-01
   3.7273388e+05  -7.5711055e-01
   3.7453453e+05  -1.1016723e+00
   3.7633518e+05  -1.3498051e+00
   3.7813582e+05  -1.4494339e+00
   3.7993647e+05  -1.3751335e+00
   3.8173712e+05  -1.1384211e+00
   3.8353776e+05  -7.7877540e-01
   3.8533841e+05  -3.5685675e-01
   3.8713906e+05   7.8585496e-02
   3.8893971e+05   4.9999910e-01
   3.9074035e+05   8.9213767e-01
   3.9254100e+05   1.2480332e+00
   3.9434165e+05   1.5565153e+00
   3.9614229e+05   1.7997046e+00
   3.9794294e+05   1.9601202e+00
   3.9974359e+05   2.0238316e+00
   4.0154423e+05   1.9847295e+00
   4.0334488e+05   1.8463954e+00
   4.0514553e+05   1.6207228e+00
   4.0694617e+05   1.3273794e+00
   4.0874682e+05   9.8903364e-01
   4.1054747e+05   6.2769157e-01
   4.1234811e+05   2.5334005e-01
   4.1414876e+05  -1.3570463e-01
   4.1594941e+05  -5.3112151e-01
   4.1775005e+05  -9.0677793e-01
   4.1955070e+05  -1.2172547e+00
   4.2135135e+05  -1.4034168e+00
   4.2315199e+05  -1.4275054e+00
   4.2495264e+05  -1.2838397e+00
   4.2675329e+05  -9.9060411e-01
   4.2855393e+05  -5.8740142e-01
   4.3035458e+05  -1.2379070e-01
   4.3215523e+05   3.4800615e-01
   4.3395587e+05   7.9483866e-01
   4.3575652e+05   1.2061838e+00
   4.3755717e+05   1.5738184e+00
   4.3935782e+05   1.8858667e+00
   4.4115846e+05   2.1251774e+00
   4.4295911e+05   2.2705338e+00
   4.4475976e+05   2.3062002e+00
   4.4656040e+05   2.2258989e+00
   4.4836105e+05   2.0357250e+00
   4.5016170e+05   1.7545505e+00
   4.5196234e+05   1.4068774e+00
   4.5376299e+05   1.0190874e+00
   4.5556364e+05   6.0968933e-01
   4.5736428e+05   1.8733006e-01
   4.5916493e+05  -2.4257836e-01
   4.6096558e+05  -6.7174578e-01
   4.6276622e+05  -1.0696026e+00
   4.6456687e+05  -1.3815369e+00
   4.6636752e+05  -1.5540220e+00
   4.6816816e+05  -1.5468673e+00
   4.6996881e+05  -1.3543864e+00
   4.7176946e+05  -1.0100998e+00
   4.7357010e+05  -5.6765782e-01
   4.7537075e+05  -9.0632267e-02
   4.7717140e+05   3.7559700e-01
   4.7897204e+05   8.1005691e-01
   4.8077269e+05   1.2021024e+00
   4.8257334e+05   1.5457909e+00
   4.8437398e+05   1.8288308e+00
   4.8617463e+05   2.0312840e+00
   4.8797528e+05   2.1356040e+00
   4.8977593e+05   2.1305168e+00
   4.9157657e+05   2.0147366e+00
   4.9337722e+05   1.7983677e+00
   4.9517787e+05   1.5008788e+00
   4.9697851e+05   1.1487341e+00
   4.9877916e+05   7.6447142e-01
   5.0057981e+05   3.6336283e-01
   5.0238045e+05  -4.6505884e-02
   5.0418110e+05  -4.6080235e-01
   5.0598175e+05  -8.6204239e-01
   5.0778239e+05  -1.2147705e+00
   5.0958304e+05  -1.4695592e+00
   5.1138369e+05  -1.5705936e+00
   5.1318433e+05  -1.4872287e+00
   5.1498498e+05  -1.2239774e+00
   5.1678563e+05  -8.1768302e-01
   5.1858627e+05  -3.3128498e-01
   5.2038692e+05   1.7890551e-01
   5.2218757e+05   6.7251567e-01
   5.2398821e+05   1.1243219e+00
   5.2578886e+05   1.5227779e+00
   5.2758951e+05   1.8600265e+00
   5.2939015e+05   2.1278041e+00
   5.3119080e+05   2.3109380e+00
   5.3299145e+05   2.3883985e+00
   5.3479209e+05   2.3471652e+00
   5.3659274e+05   2.1867022e+00
   5.3839339e+05   1.9195001e+00
   5.4019404e+05   1.5700157e+00
   5.4199468e+05   1.1660458e+00
   5.4379533e+05   7.3470413e-01
   5.4559598e+05   2.9463420e-01
   5.4739662e+05  -1.4476346e-01
   5.4919727e+05  -5.7530819e-01
   5.5099792e+05  -9.8334017e-01
   5.5279856e+05  -1.3309904e+00
   5.5459921e+05  -1.5576368e+00
   5.5639986e+05  -1.6127971e+00
   5.5820050e+05  -1.4705139e+00
   5.6000115e+05  -1.1493312e+00
   5.6180180e+05  -7.1023678e-01
   5.6360244e+05  -2.1572542e-01
   5.6540309e+05   2.8246051e-01
   5.6720374e+05   7.4871372e-01
   5.6900438e+05   1.1643322e+00
   5.7080503e+05   1.5209141e+00
   5.7260568e+05   1.8156976e+00
   5.7440632e+05   2.0377105e+00
   5.7620697e+05   2.1671231e+00
   5.7800762e+05   2.1896389e+00
   5.7980826e+05   2.1003450e+00
   5.8160891e+05   1.9025441e+00
   5.8340956e+05   1.6087953e+00
   5.8521020e+05   1.2447625e+00
   5.8701085e+05   8.4571823e-01
   5.8881150e+05   4.3566929e-01
   5.9061215e+05   2.3640233e-02
   5.9241279e+05  -3.8656899e-01
   5.9421344e+05  -7.8900657e-01
   5.9601409e+05  -1.1552958e+00
   5.9781473e+05  -1.4343984e+00
   5.9961538e+05  -1.5773488e+00
   6.0141603e+05  -1.5475494e+00
   6.0321667e+05  -1.3355618e+00
   6.0501732e+05  -9.6310628e-01
   6.0681797e+05  -4.7922775e-01
   6.0861861e+05   4.7831782e-02
   6.1041926e+05   5.6352216e-01
   6.1221991e+05   1.0349760e+00
   6.1402055e+05   1.4461032e+00
   6.1582120e+05   1.7930957e+00
   6.1762185e+05   2.0693200e+00
   6.1942249e+05   2.2623903e+00
   6.2122314e+05   2.3588717e+00
   6.2302379e+05   2.3464783e+00
   6.2482443e+05   2.2179923e+00
   6.2662508e+05   1.9747097e+00
   6.2842573e+05   1.6355840e+00
   6.3022637e+05   1.2353441e+00
   6.3202702e+05   8.0538902e-01
   6.3382767e+05   3.6851324e-01
   6.3562831e+05  -6.1761660e-02
   6.3742896e+05  -4.7849293e-01
   6.3922961e+05  -8.6900290e-01
   6.4103026e+05  -1.2093667e+00
   6.4283090e+05  -1.4556566e+00
   6.4463155e+05  -1.5507592e+00
   6.4643220e+05  -1.4624116e+00
   6.4823284e+05  -1.1931475e+00
   6.5003349e+05  -7.7895313e-01
   6.5183414e+05  -2.8278371e-01
   6.5363478e+05   2.3247580e-01
   6.5543543e+05   7.1444730e-01
   6.5723608e+05   1.1350553e+00
   6.5903672e+05   1.4892990e+00
   6.6083737e+05   1.7748314e+00
   6.6263802e+05   1.9867034e+00
   6.6443866e+05   2.1172130e+00
   6.6623931e+05   2.1561172e+00
   6.6803996e+05   2.0916054e+00
   6.6984060e+05   1.9145787e+00
   6.7164125e+05   1.6348361e+00
   6.7344190e+05   1.2813490e+00
   6.7524254e+05   8.8629304e-01
   6.7704319e+05   4.7847497e-01
   6.7884384e+05   7.3310298e-02
   6.8064448e+05  -3.2509239e-01
   6.8244513e+05  -7.0527630e-01
   6.8424578e+05  -1.0448283e+00
   6.8604642e+05  -1.3150149e+00
   6.8784707e+05  -1.4820248e+00
   6.8964772e+05  -1.5070927e+00
   6.9144837e+05  -1.3552341e+00
   6.9324901e+05  -1.0300646e+00
   6.9504966e+05  -5.7642627e-01
   6.9685031e+05  -5.6208926e-02
   6.9865095e+05   4.6416711e-01
   7.0045160e+05   9.3923959e-01
   7.0225225e+05   1.3480008e+00
   7.0405289e+05   1.6829327e+00
   7.0585354e+05   1.9443517e+00
   7.0765419e+05   2.1291572e+00
   7.0945483e+05   2.2289720e+00
   7.1125548e+05   2.2335766e+00
   7.1305613e+05   2.1336370e+00
   7.1485677e+05   1.9280853e+00
   7.1665742e+05   1.6264179e+00
   7.1845807e+05   1.2509714e+00
   7.2025871e+05   8.3454315e-01
   7.2205936e+05   4.0942162e-01
   7.2386001e+05   2.0221046e-03
   7.2566065e+05  -3.7793418e-01
   7.2746130e+05  -7.3259705e-01
   7.2926195e+05  -1.0472937e+00
   7.3106259e+05  -1.2866053e+00
   7.3286324e+05  -1.4054541e+00
   7.3466389e+05  -1.3598581e+00
   7.3646453e+05  -1.1382656e+00
   7.3826518e+05  -7.6602652e-01
   7.4006583e+05  -2.9522776e-01
   7.4186648e+05   2.0560449e-01
   7.4366712e+05   6.8028807e-01
   7.4546777e+05   1.0922097e+00
   7.4726842e+05   1.4264600e+00
   7.4906906e+05   1.6858428e+00
   7.5086971e+05   1.8750986e+00
   7.5267036e+05   1.9956170e+00
   7.5447100e+05   2.0395821e+00
   7.5627165e+05   1.9922829e+00
   7.5807230e+05   1.8459081e+00
   7.5987294e+05   1.6035261e+00
   7.6167359e+05   1.2824961e+00
   7.6347424e+05   9.1199896e-01
   7.6527488e+05   5.2176446e-01
   7.6707553e+05   1.3741383e-01
   7.6887618e+05  -2.2737623e-01
   7.7067682e+05  -5.6871970e-01
   7.7247747e+05  -8.7820821e-01
   7.7427812e+05  -1.1382818e+00
   7.7607876e+05  -1.3166230e+00
   7.7787941e+05  -1.3711801e+00
   7.7968006e+05  -1.2733252e+00
   7.8148070e+05  -1.0157097e+00
   7.8328135e+05  -6.2352684e-01
   7.8508200e+05  -1.5026203e-01
   7.8688264e+05   3.4479373e-01
   7.8868329e+05   8.0632578e-01
   7.9048394e+05   1.1999470e+00
   7.9228458e+05   1.5131449e+00
   7.9408523e+05   1.7466729e+00
   7.9588588e+05   1.9087787e+00
   7.9768653e+05   2.0023373e+00
   7.9948717e+05   2.0227680e+00
   8.0128782e+05   1.9608197e+00
   8.0308847e+05   1.8062693e+00
   8.0488911e+05   1.5591779e+00
   8.0668976e+05   1.2328524e+00
   8.0849041e+05   8.5700552e-01
   8.1029105e+05   4.7152611e-01
   8.1209170e+05   1.0192549e-01
   8.1389235e+05  -2.4256782e-01
   8.1569299e+05  -5.5687984e-01
   8.1749364e+05  -8.3393379e-01
   8.1929429e+05  -1.0521228e+00
   8.2109493e+05  -1.1765932e+00
   8.2289558e+05  -1.1728316e+00
   8.2469623e+05  -1.0156183e+00
   8.2649687e+05  -7.1195377e-01
   8.2829752e+05  -3.0105705e-01
   8.3009817e+05   1.5962237e-01
   8.3189881e+05   6.0570772e-01
   8.3369946e+05   9.9384908e-01
   8.3550011e+05   1.3051327e+00
   8.3730075e+05   1.5380465e+00
   8.3910140e+05   1.7024216e+00
   8.4090205e+05   1.8056954e+00
   8.4270269e+05   1.8494088e+00
   8.4450334e+05   1.8272271e+00
   8.4630399e+05   1.7276986e+00
   8.4810464e+05   1.5450263e+00
   8.4990528e+05   1.2829098e+00
   8.5170593e+05   9.6135227e-01
   8.5350658e+05   6.1255565e-01
   8.5530722e+05   2.6270174e-01
   8.5710787e+05  -7.1361968e-02
   8.5890852e+05  -3.8056935e-01
   8.6070916e+05  -6.6007348e-01
   8.6250981e+05  -8.9849388e-01
   8.6431046e+05  -1.0756985e+00
   8.6611110e+05  -1.1619876e+00
   8.6791175e+05  -1.1243941e+00
   8.6971240e+05  -9.4947796e-01
   8.7151304e+05  -6.4762506e-01
   8.7331369e+05  -2.5506349e-01
   8.7511434e+05   1.7336655e-01
   8.7691498e+05   5.8721025e-01
   8.7871563e+05   9.4737677e-01
   8.8051628e+05   1.2346209e+00
   8.8231692e+05   1.4478601e+00
   8.8411757e+05   1.5956322e+00
   8.8591822e+05   1.6899788e+00
   8.8771886e+05   1.7328742e+00
   8.8951951e+05   1.7159030e+00
   8.9132016e+05   1.6278215e+00
   8.9312080e+05   1.4596240e+00
   8.9492145e+05   1.2168002e+00
   8.9672210e+05   9.1910201e-01
   8.9852275e+05   5.9340072e-01
   9.0032339e+05   2.6865417e-01
   9.0212404e+05  -3.5333816e-02
   9.0392469e+05  -3.0865541e-01
   9.0572533e+05  -5.4723699e-01
   9.0752598e+05  -7.4660290e-01
   9.0932663e+05  -8.8318377e-01
   9.1112727e+05  -9.1950539e-01
   9.1292792e+05  -8.3392666e-01
   9.1472857e+05  -6.2598195e-01
   9.1652921e+05  -3.1703217e-01
   9.1832986e+05   5.3758806e-02
   9.2013051e+05   4.3845540e-01
   9.2193115e+05   7.8846736e-01
   9.2373180e+05   1.0753532e+00
   9.2553245e+05   1.2917384e+00
   9.2733309e+05   1.4440700e+00
   9.2913374e+05   1.5460211e+00
   9.3093439e+05   1.6039424e+00
   9.3273503e+05   1.6153206e+00
   9.3453568e+05   1.5724540e+00
   9.3633633e+05   1.4658722e+00
   9.3813697e+05   1.2925668e+00
   9.3993762e+05   1.0582777e+00
   9.4173827e+05   7.8166691e-01
   9.4353891e+05   4.8954214e-01
   9.4533956e+05   1.9979939e-01
   9.4714021e+05  -7.8934107e-02
   9.4894086e+05  -3.3777216e-01
   9.5074150e+05  -5.6542767e-01
   9.5254215e+05  -7.4776426e-01
   9.5434280e+05  -8.6749188e-01
   9.5614344e+05  -9.0243640e-01
   9.5794409e+05  -8.3073601e-01
   9.5974474e+05  -6.5011553e-01
   9.6154538e+05  -3.7891285e-01
   9.6334603e+05  -5.1815942e-02
   9.6514668e+05   2.8695747e-01
   9.6694732e+05   5.9987503e-01
   9.6874797e+05   8.6085426e-01
   9.7054862e+05   1.0627544e+00
   9.7234926e+05   1.2132975e+00
   9.7414991e+05   1.3211095e+00
   9.7595056e+05   1.3917798e+00
   9.7775120e+05   1.4245036e+00
   9.7955185e+05   1.4123994e+00
   9.8135250e+05   1.3437410e+00
   9.8315314e+05   1.2072350e+00
   9.8495379e+05   1.0090219e+00
   9.8675444e+05   7.7063901e-01
   9.8855508e+05   5.1510866e-01
   9.9035573e+05   2.6230538e-01
   9.9215638e+05   2.3173631e-02
   9.9395702e+05  -1.9758128e-01
   9.9575767e+05  -3.9061218e-01
   9.9755832e+05  -5.4036540e-01
   9.9935897e+05  -6.2580229e-01
   1.0011596e+06  -6.2494364e-01
   1.0029603e+06  -5.2901309e-01
   1.0047609e+06  -3.4389240e-01
   1.0065616e+06  -9.0295141e-02
   1.0083622e+06   1.9961656e-01
   1.0101628e+06   4.8856849e-01
   1.0119635e+06   7.4117458e-01
   1.0137641e+06   9.4296901e-01
   1.0155648e+06   1.0981771e+00
   1.0173654e+06   1.2160870e+00
   1.0191661e+06   1.3057538e+00
   1.0209667e+06   1.3689491e+00
   1.0227674e+06   1.3999264e+00
   1.0245680e+06   1.3865285e+00
   1.0263687e+06   1.3152773e+00
   1.0281693e+06   1.1866730e+00
   1.0299700e+06   1.0131213e+00
   1.0317706e+06   8.0604602e-01
   1.0335713e+06   5.7442045e-01
   1.0353719e+06   3.2871108e-01
   1.0371725e+06   8.1548057e-02
   1.0389732e+06  -1.5211468e-01
   1.0407738e+06  -3.5630694e-01
   1.0425745e+06  -5.1806762e-01
   1.0443751e+06  -6.2631867e-01
   1.0461758e+06  -6.6593301e-01
   1.0479764e+06  -6.2178247e-01
   1.0497771e+06  -4.9636503e-01
   1.0515777e+06  -3.0816249e-01
   1.0533784e+06  -8.1062281e-02
   1.0551790e+06   1.5920971e-01
   1.0569797e+06   3.8768032e-01
   1.0587803e+06   5.8418558e-01
   1.0605810e+06   7.4707892e-01
   1.0623816e+06   8.8800823e-01
   1.0641822e+06   1.0117305e+00
   1.0659829e+06   1.1141831e+00
   1.0677835e+06   1.1866164e+00
   1.0695842e+06   1.2180481e+00
   1.0713848e+06   1.1989468e+00
   1.0731855e+06   1.1233040e+00
   1.0749861e+06   9.9448451e-01
   1.0767868e+06   8.2398126e-01
   1.0785874e+06   6.2746833e-01
   1.0803881e+06   4.2156492e-01
   1.0821887e+06   2.1679449e-01
   1.0839894e+06   1.9586546e-02
   1.0857900e+06  -1.5845952e-01
   1.0875907e+06  -3.0087381e-01
   1.0893913e+06  -3.9125354e-01
   1.0911920e+06  -4.1592662e-01
   1.0929926e+06  -3.7031507e-01
   1.0947932e+06  -2.5886061e-01
   1.0965939e+06  -9.5212310e-02
   1.0983945e+06   1.0034507e-01
   1.1001952e+06   3.0541370e-01
   1.1019958e+06   4.9926625e-01
   1.1037965e+06   6.7255708e-01
   1.1055971e+06   8.2601752e-01
   1.1073978e+06   9.6512949e-01
   1.1091984e+06   1.0950484e+00
   1.1109991e+06   1.2081376e+00
   1.1127997e+06   1.2877556e+00
   1.1146004e+06   1.3239392e+00
   1.1164010e+06   1.3136401e+00
   1.1182017e+06   1.2543462e+00
   1.1200023e+06   1.1439242e+00
   1.1218029e+06   9.8488528e-01
   1.1236036e+06   7.8487736e-01
   1.1254042e+06   5.5811749e-01
   1.1272049e+06   3.2272698e-01
   1.1290055e+06   9.3647124e-02
   1.1308062e+06  -1.1749237e-01
   1.1326068e+06  -2.9960468e-01
   1.1344075e+06  -4.4146419e-01
   1.1362081e+06  -5.3146700e-01
   1.1380088e+06  -5.5950280e-01
   1.1398094e+06  -5.2393098e-01
   1.1416101e+06  -4.3092383e-01
   1.1434107e+06  -2.9229399e-01
   1.1452114e+06  -1.2301052e-01
   1.1470120e+06   6.3110131e-02
   1.1488126e+06   2.5457461e-01
   1.1506133e+06   4.4431047e-01
   1.1524139e+06   6.2837268e-01
   1.1542146e+06   8.0231171e-01
   1.1560152e+06   9.6009447e-01
   1.1578159e+06   1.0923414e+00
   1.1596165e+06   1.1871072e+00
   1.1614172e+06   1.2319759e+00
   1.1632178e+06   1.2167079e+00
   1.1650185e+06   1.1412187e+00
   1.1668191e+06   1.0137749e+00
   1.1686198e+06   8.4525220e-01
   1.1704204e+06   6.4801014e-01
   1.1722211e+06   4.3729662e-01
   1.1740217e+06   2.2942590e-01
   1.1758223e+06   3.6101090e-02
   1.1776230e+06  -1.3421615e-01
   1.1794236e+06  -2.7043712e-01
   1.1812243e+06  -3.5986191e-01
   1.1830249e+06  -3.9427217e-01
   1.1848256e+06  -3.7034051e-01
   1.1866262e+06  -2.8990793e-01
   1.1884269e+06  -1.5944631e-01
   1.1902275e+06   8.7581316e-03
   1.1920282e+06   1.9923450e-01
   1.1938288e+06   3.9994342e-01
   1.1956295e+06   6.0267830e-01
   1.1974301e+06   8.0228647e-01
   1.1992308e+06   9.9403091e-01
   1.2010314e+06   1.1665119e+00
   1.2028321e+06   1.3045548e+00
   1.2046327e+06   1.4001006e+00
   1.2064333e+06   1.4497591e+00
   1.2082340e+06   1.4433872e+00
   1.2100346e+06   1.3682074e+00
   1.2118353e+06   1.2267708e+00
   1.2136359e+06   1.0340956e+00
   1.2154366e+06   8.0592022e-01
   1.2172372e+06   5.5682873e-01
   1.2190379e+06   3.0173449e-01
   1.2208385e+06   5.5109201e-02
   1.2226392e+06  -1.7263344e-01
   1.2244398e+06  -3.7387113e-01
   1.2262405e+06  -5.3974582e-01
   1.2280411e+06  -6.5916949e-01
   1.2298418e+06  -7.1682288e-01
   1.2316424e+06  -6.9736600e-01
   1.2334430e+06  -5.9907414e-01
   1.2352437e+06  -4.3272837e-01
   1.2370443e+06  -2.1847411e-01
   1.2388450e+06   1.9674457e-02
   1.2406456e+06   2.6504084e-01
   1.2424463e+06   5.0784479e-01
   1.2442469e+06   7.4172382e-01
   1.2460476e+06   9.6057888e-01
   1.2478482e+06   1.1518916e+00
   1.2496489e+06   1.2987448e+00
   1.2514495e+06   1.3866489e+00
   1.2532502e+06   1.4052925e+00
   1.2550508e+06   1.3523001e+00
   1.2568515e+06   1.2322419e+00
   1.2586521e+06   1.0565247e+00
   1.2604527e+06   8.4123990e-01
   1.2622534e+06   6.0454377e-01
   1.2640540e+06   3.6398916e-01
   1.2658547e+06   1.2993115e-01
   1.2676553e+06  -9.2148531e-02
   1.2694560e+06  -2.9453047e-01
   1.2712566e+06  -4.6518993e-01
   1.2730573e+06  -5.8294828e-01
   1.2748579e+06  -6.2364370e-01
   1.2766586e+06  -5.7864783e-01
   1.2784592e+06  -4.5325249e-01
   1.2802599e+06  -2.6111138e-01
   1.2820605e+06  -2.0831815e-02
   1.2838612e+06   2.4646464e-01
   1.2856618e+06   5.1960899e-01
   1.2874625e+06   7.8297101e-01
   1.2892631e+06   1.0260344e+00
   1.2910637e+06   1.2427823e+00
   1.2928644e+06   1.4286352e+00
   1.2946650e+06   1.5730726e+00
   1.2964657e+06   1.6608626e+00
   1.2982663e+06   1.6764298e+00
   1.3000670e+06   1.6078581e+00
   1.3018676e+06   1.4584997e+00
   1.3036683e+06   1.2437340e+00
   1.3054689e+06   9.8418896e-01
   1.3072696e+06   7.0147923e-01
   1.3090702e+06   4.1096598e-01
   1.3108709e+06   1.2191426e-01
   1.3126715e+06  -1.6261341e-01
   1.3144722e+06  -4.3979504e-01
   1.3162728e+06  -6.9022668e-01
   1.3180734e+06  -8.8227027e-01
   1.3198741e+06  -9.8467463e-01
   1.3216747e+06  -9.7350368e-01
   1.3234754e+06  -8.4996923e-01
   1.3252760e+06  -6.3492951e-01
   1.3270767e+06  -3.5865089e-01
   1.3288773e+06  -5.3814317e-02
   1.3306780e+06   2.5606613e-01
   1.3324786e+06   5.5610247e-01
   1.3342793e+06   8.3876682e-01
   1.3360799e+06   1.0990586e+00
   1.3378806e+06   1.3236882e+00
   1.3396812e+06   1.4937757e+00
   1.3414819e+06   1.5941744e+00
   1.3432825e+06   1.6141680e+00
   1.3450831e+06   1.5476836e+00
   1.3468838e+06   1.3956887e+00
   1.3486844e+06   1.1785178e+00
   1.3504851e+06   9.2714810e-01
   1.3522857e+06   6.6062837e-01
   1.3540864e+06   3.8649062e-01
   1.3558870e+06   1.0537253e-01
   1.3576877e+06  -1.8219425e-01
   1.3594883e+06  -4.5975069e-01
   1.3612890e+06  -6.9791074e-01
   1.3630896e+06  -8.6108149e-01
   1.3648903e+06  -9.1551727e-01
   1.3666909e+06  -8.4920099e-01
   1.3684916e+06  -6.6987911e-01
   1.3702922e+06  -4.0497095e-01
   1.3720928e+06  -9.1946222e-02
   1.3738935e+06   2.3943888e-01
   1.3756941e+06   5.6795995e-01
   1.3774948e+06   8.8037807e-01
   1.3792954e+06   1.1682415e+00
   1.3810961e+06   1.4234270e+00
   1.3828967e+06   1.6363948e+00
   1.3846974e+06   1.7927974e+00
   1.3864980e+06   1.8759532e+00
   1.3882987e+06   1.8735796e+00
   1.3900993e+06   1.7792366e+00
   1.3919000e+06   1.5974436e+00
   1.3937006e+06   1.3427583e+00
   1.3955013e+06   1.0430372e+00
   1.3973019e+06   7.2910068e-01
   1.3991026e+06   4.0762345e-01
   1.4009032e+06   7.0027252e-02
   1.4027038e+06  -2.8165518e-01
   1.4045045e+06  -6.3080475e-01
   1.4063051e+06  -9.3723182e-01
   1.4081058e+06  -1.1489733e+00
   1.4099064e+06  -1.2285959e+00
   1.4117071e+06  -1.1582637e+00
   1.4135077e+06  -9.5595513e-01
   1.4153084e+06  -6.6228828e-01
   1.4171090e+06  -3.1650903e-01
   1.4189097e+06   4.7792647e-02
   1.4207103e+06   4.0596302e-01
   1.4225110e+06   7.4122334e-01
   1.4243116e+06   1.0468973e+00
   1.4261123e+06   1.3201269e+00
   1.4279129e+06   1.5474852e+00
   1.4297135e+06   1.7083330e+00
   1.4315142e+06   1.7851698e+00
   1.4333148e+06   1.7663142e+00
   1.4351155e+06   1.6525387e+00
   1.4369161e+06   1.4552421e+00
   1.4387168e+06   1.1976416e+00
   1.4405174e+06   9.0735178e-01
   1.4423181e+06   6.0023176e-01
   1.4441187e+06   2.8166010e-01
   1.4459194e+06  -5.0848323e-02
   1.4477200e+06  -3.9733606e-01
   1.4495207e+06  -7.2764548e-01
   1.4513213e+06  -9.9159992e-01
   1.4531220e+06  -1.1421070e+00
   1.4549226e+06  -1.1441779e+00
   1.4567232e+06  -9.9718941e-01
   1.4585239e+06  -7.2690578e-01
   1.4603245e+06  -3.7732233e-01
   1.4621252e+06   2.2121188e-03
   1.4639258e+06   3.8113271e-01
   1.4657265e+06   7.4363289e-01
   1.4675271e+06   1.0790729e+00
   1.4693278e+06   1.3790961e+00
   1.4711284e+06   1.6374106e+00
   1.4729291e+06   1.8467525e+00
   1.4747297e+06   1.9904096e+00
   1.4765304e+06   2.0466615e+00
   1.4783310e+06   1.9998037e+00
   1.4801317e+06   1.8447010e+00
   1.4819323e+06   1.6027168e+00
   1.4837330e+06   1.3090062e+00
   1.4855336e+06   9.8479075e-01
   1.4873342e+06   6.3831458e-01
   1.4891349e+06   2.6945015e-01
   1.4909355e+06  -1.2261287e-01
   1.4927362e+06  -5.2282458e-01
   1.4945368e+06  -8.9997037e-01
   1.4963375e+06  -1.1989976e+00
   1.4981381e+06  -1.3582746e+00
   1.4999388e+06  -1.3508612e+00
   1.5017394e+06  -1.1807919e+00
   1.5035401e+06  -8.8245196e-01
   1.5053407e+06  -5.0625203e-01
   1.5071414e+06  -9.8292963e-02
   1.5089420e+06   3.0375186e-01
   1.5107427e+06   6.7868749e-01
   1.5125433e+06   1.0169185e+00
   1.5143439e+06   1.3154709e+00
   1.5161446e+06   1.5718132e+00
   1.5179452e+06   1.7714246e+00
   1.5197459e+06   1.8923119e+00
   1.5215465e+06   1.9151207e+00
   1.5233472e+06   1.8282234e+00
   1.5251478e+06   1.6430081e+00
   1.5269485e+06   1.3858163e+00
   1.5287491e+06   1.0849905e+00
   1.5305498e+06   7.6394581e-01
   1.5323504e+06   4.2556965e-01
   1.5341511e+06   6.2429810e-02
   1.5359517e+06  -3.2036227e-01
   1.5377524e+06  -7.0224744e-01
   1.5395530e+06  -1.0359578e+00
   1.5413536e+06  -1.2614827e+00
   1.5431543e+06  -1.3332829e+00
   1.5449549e+06  -1.2275803e+00
   1.5467556e+06  -9.6893531e-01
   1.5485562e+06  -6.1017191e-01
   1.5503569e+06  -1.9831612e-01
   1.5521575e+06   2.2831532e-01
   1.5539582e+06   6.3920287e-01
   1.5557588e+06   1.0116041e+00
   1.5575595e+06   1.3389476e+00
   1.5593601e+06   1.6230177e+00
   1.5611608e+06   1.8593872e+00
   1.5629614e+06   2.0361742e+00
   1.5647621e+06   2.1302421e+00
   1.5665627e+06   2.1167734e+00
   1.5683633e+06   1.9928081e+00
   1.5701640e+06   1.7724776e+00
   1.5719646e+06   1.4817190e+00
   1.5737653e+06   1.1492181e+00
   1.5755659e+06   7.8983115e-01
   1.5773666e+06   4.0809157e-01
   1.5791672e+06   3.8949967e-03
   1.5809679e+06  -4.1879504e-01
   1.5827685e+06  -8.2937924e-01
   1.5845692e+06  -1.1777796e+00
   1.5863698e+06  -1.4019108e+00
   1.5881705e+06  -1.4454081e+00
   1.5899711e+06  -1.3030301e+00
   1.5917718e+06  -1.0070962e+00
   1.5935724e+06  -6.1289314e-01
   1.5953731e+06  -1.8178740e-01
   1.5971737e+06   2.4601494e-01
   1.5989743e+06   6.4715746e-01
   1.6007750e+06   1.0098576e+00
   1.6025756e+06   1.3284959e+00
   1.6043763e+06   1.5998297e+00
   1.6061769e+06   1.8182400e+00
   1.6079776e+06   1.9633653e+00
   1.6097782e+06   2.0089160e+00
   1.6115789e+06   1.9431927e+00
   1.6133795e+06   1.7690766e+00
   1.6151802e+06   1.5102169e+00
   1.6169808e+06   1.1996778e+00
   1.6187815e+06   8.6024181e-01
   1.6205821e+06   5.0418401e-01
   1.6223828e+06   1.3041009e-01
   1.6241834e+06  -2.6483161e-01
   1.6259840e+06  -6.6418827e-01
   1.6277847e+06  -1.0311683e+00
   1.6295853e+06  -1.3046816e+00
   1.6313860e+06  -1.4199105e+00
   1.6331866e+06  -1.3561949e+00
   1.6349873e+06  -1.1268541e+00
   1.6367879e+06  -7.7057168e-01
   1.6385886e+06  -3.3849975e-01
   1.6403892e+06   1.1843441e-01
   1.6421899e+06   5.5587643e-01
   1.6439905e+06   9.5257196e-01
   1.6457912e+06   1.3021415e+00
   1.6475918e+06   1.6029024e+00
   1.6493925e+06   1.8526042e+00
   1.6511931e+06   2.0398223e+00
   1.6529937e+06   2.1473631e+00
   1.6547944e+06   2.1576693e+00
   1.6565950e+06   2.0577300e+00
   1.6583957e+06   1.8533017e+00
   1.6601963e+06   1.5639199e+00
   1.6619970e+06   1.2203559e+00
   1.6637976e+06   8.5353662e-01
   1.6655983e+06   4.6992545e-01
   1.6673989e+06   6.3579656e-02
   1.6691996e+06  -3.5899198e-01
   1.6710002e+06  -7.7587353e-01
   1.6728009e+06  -1.1362977e+00
   1.6746015e+06  -1.3770444e+00
   1.6764022e+06  -1.4523247e+00
   1.6782028e+06  -1.3385989e+00
   1.6800034e+06  -1.0579470e+00
   1.6818041e+06  -6.6085878e-01
   1.6836047e+06  -2.0859062e-01
   1.6854054e+06   2.4054627e-01
   1.6872060e+06   6.5856389e-01
   1.6890067e+06   1.0362625e+00
   1.6908073e+06   1.3664636e+00
   1.6926080e+06   1.6414469e+00
   1.6944086e+06   1.8534789e+00
   1.6962093e+06   1.9932608e+00
   1.6980099e+06   2.0443200e+00
   1.6998106e+06   1.9896116e+00
   1.7016112e+06   1.8284821e+00
   1.7034119e+06   1.5735762e+00
   1.7052125e+06   1.2518772e+00
   1.7070132e+06   8.9509281e-01
   1.7088138e+06   5.2264365e-01
   1.7106144e+06   1.4364343e-01
   1.7124151e+06  -2.4344844e-01
   1.7142157e+06  -6.3789769e-01
   1.7160164e+06  -1.0043706e+00
   1.7178170e+06  -1.2868946e+00
   1.7196177e+06  -1.4301465e+00
   1.7214183e+06  -1.3917919e+00
   1.7232190e+06  -1.1767468e+00
   1.7250196e+06  -8.2170506e-01
   1.7268203e+06  -3.8305111e-01
   1.7286209e+06   7.8596673e-02
   1.7304216e+06   5.2333564e-01
   1.7322222e+06   9.2744372e-01
   1.7340229e+06   1.2820259e+00
   1.7358235e+06   1.5852597e+00
   1.7376241e+06   1.8336335e+00
   1.7394248e+06   2.0198366e+00
   1.7412254e+06   2.1271371e+00
   1.7430261e+06   2.1360492e+00
   1.7448267e+06   2.0384234e+00
   1.7466274e+06   1.8368572e+00
   1.7484280e+06   1.5503597e+00
   1.7502287e+06   1.2064498e+00
   1.7520293e+06   8.3122580e-01
   1.7538300e+06   4.4553391e-01
   1.7556306e+06   5.4114797e-02
   1.7574313e+06  -3.4341108e-01
   1.7592319e+06  -7.2966316e-01
   1.7610326e+06  -1.0709533e+00
   1.7628332e+06  -1.3102970e+00
   1.7646338e+06  -1.3875863e+00
   1.7664345e+06  -1.2834342e+00
   1.7682351e+06  -1.0109135e+00
   1.7700358e+06  -6.1873162e-01
   1.7718364e+06  -1.7066741e-01
   1.7736371e+06   2.8297300e-01
   1.7754377e+06   7.0550044e-01
   1.7772384e+06   1.0794344e+00
   1.7790390e+06   1.3985280e+00
   1.7808397e+06   1.6614075e+00
   1.7826403e+06   1.8660697e+00
   1.7844410e+06   1.9995677e+00
   1.7862416e+06   2.0437557e+00
   1.7880423e+06   1.9857381e+00
   1.7898429e+06   1.8203430e+00
   1.7916436e+06   1.5608069e+00
   1.7934442e+06   1.2320146e+00
   1.7952448e+06   8.6569896e-01
   1.7970455e+06   4.9140368e-01
   1.7988461e+06   1.1592189e-01
   1.8006468e+06  -2.6376342e-01
   1.8024474e+06  -6.3624546e-01
   1.8042481e+06  -9.7580975e-01
   1.8060487e+06  -1.2345289e+00
   1.8078494e+06  -1.3588620e+00
   1.8096500e+06  -1.3218279e+00
   1.8114507e+06  -1.1197594e+00
   1.8132513e+06  -7.8165932e-01
   1.8150520e+06  -3.5525312e-01
   1.8168526e+06   1.0362156e-01
   1.8186533e+06   5.4242428e-01
   1.8204539e+06   9.3661627e-01
   1.8222545e+06   1.2787289e+00
   1.8240552e+06   1.5664810e+00
   1.8258558e+06   1.7974003e+00
   1.8276565e+06   1.9615569e+00
   1.8294571e+06   2.0455506e+00
   1.8312578e+06   2.0395963e+00
   1.8330584e+06   1.9378569e+00
   1.8348591e+06   1.7414013e+00
   1.8366597e+06   1.4590144e+00
   1.8384604e+06   1.1173650e+00
   1.8402610e+06   7.4932694e-01
   1.8420617e+06   3.7310730e-01
   1.8438623e+06  -2.4528522e-03
   1.8456630e+06  -3.7042616e-01
   1.8474636e+06  -7.1905870e-01
   1.8492642e+06  -1.0142343e+00
   1.8510649e+06  -1.2103118e+00
   1.8528655e+06  -1.2651144e+00
   1.8546662e+06  -1.1498162e+00
   1.8564668e+06  -8.8105094e-01
   1.8582675e+06  -5.0239251e-01
   1.8600681e+06  -6.7658759e-02
   1.8618688e+06   3.7001095e-01
   1.8636694e+06   7.7598888e-01
   1.8654701e+06   1.1297043e+00
   1.8672707e+06   1.4264723e+00
   1.8690714e+06   1.6677493e+00
   1.8708720e+06   1.8479283e+00
   1.8726727e+06   1.9564487e+00
   1.8744733e+06   1.9808044e+00
   1.8762739e+06   1.9099294e+00
   1.8780746e+06   1.7419827e+00
   1.8798752e+06   1.4840507e+00
   1.8816759e+06   1.1600939e+00
   1.8834765e+06   8.0087842e-01
   1.8852772e+06   4.2892588e-01
   1.8870778e+06   6.0019774e-02
   1.8888785e+06  -2.9677954e-01
   1.8906791e+06  -6.3264890e-01
   1.8924798e+06  -9.2593696e-01
   1.8942804e+06  -1.1455126e+00
   1.8960811e+06  -1.2502164e+00
   1.8978817e+06  -1.2024764e+00
   1.8996824e+06  -1.0010579e+00
   1.9014830e+06  -6.7025516e-01
   1.9032837e+06  -2.5924265e-01
   1.9050843e+06   1.7435788e-01
   1.9068849e+06   5.8703352e-01
   1.9086856e+06   9.4934569e-01
   1.9104862e+06   1.2560905e+00
   1.9122869e+06   1.5121659e+00
   1.9140875e+06   1.7133901e+00
   1.9158882e+06   1.8496864e+00
   1.9176888e+06   1.9106566e+00
   1.9194895e+06   1.8873003e+00
   1.9212901e+06   1.7753738e+00
   1.9230908e+06   1.5762067e+00
   1.9248914e+06   1.3044239e+00
   1.9266921e+06   9.8176101e-01
   1.9284927e+06   6.3119820e-01
   1.9302934e+06   2.7448359e-01
   1.9320940e+06  -7.2294083e-02
   1.9338946e+06  -3.9653096e-01
   1.9356953e+06  -6.8785702e-01
   1.9374959e+06  -9.3108448e-01
   1.9392966e+06  -1.0862556e+00
   1.9410972e+06  -1.1075516e+00
   1.9428979e+06  -9.8010612e-01
   1.9446985e+06  -7.1315812e-01
   1.9464992e+06  -3.4591413e-01
   1.9482998e+06   6.8647821e-02
   1.9501005e+06   4.7987539e-01
   1.9519011e+06   8.4648431e-01
   1.9537018e+06   1.1574999e+00
   1.9555024e+06   1.4165710e+00
   1.9573031e+06   1.6232849e+00
   1.9591037e+06   1.7727490e+00
   1.9609043e+06   1.8550902e+00
   1.9627050e+06   1.8589629e+00
   1.9645056e+06   1.7766570e+00
   1.9663063e+06   1.6056123e+00
   1.9681069e+06   1.3566009e+00
   1.9699076e+06   1.0485232e+00
   1.9717082e+06   7.0636035e-01
   1.9735089e+06   3.5570701e-01
   1.9753095e+06   1.3695506e-02
   1.9771102e+06  -3.0777297e-01
   1.9789108e+06  -5.9981096e-01
   1.9807115e+06  -8.5053338e-01
   1.9825121e+06  -1.0300762e+00
   1.9843128e+06  -1.1020064e+00
   1.9861134e+06  -1.0414939e+00
   1.9879140e+06  -8.3888354e-01
   1.9897147e+06  -5.2140453e-01
   1.9915153e+06  -1.3594236e-01
   1.9933160e+06   2.6482551e-01
   1.9951166e+06   6.3310134e-01
   1.9969173e+06   9.4879270e-01
   1.9987179e+06   1.2079041e+00
   2.0005186e+06   1.4147056e+00
   2.0023192e+06   1.5739788e+00
   2.0041199e+06   1.6792795e+00
   2.0059205e+06   1.7188937e+00
   2.0077212e+06   1.6837707e+00
   2.0095218e+06   1.5690083e+00
   2.0113225e+06   1.3798836e+00
   2.0131231e+06   1.1282685e+00
   2.0149238e+06   8.3289880e-01
   2.0167244e+06   5.1531182e-01
   2.0185250e+06   1.9597878e-01
   2.0203257e+06  -1.0733066e-01
   2.0221263e+06  -3.8526126e-01
   2.0239270e+06  -6.2946301e-01
   2.0257276e+06  -8.1816479e-01
   2.0275283e+06  -9.2293170e-01
   2.0293289e+06  -9.1667852e-01
   2.0311296e+06  -7.8036512e-01
   2.0329302e+06  -5.2446022e-01
   2.0347309e+06  -1.7935048e-01
   2.0365315e+06   2.0176911e-01
   2.0383322e+06   5.6293807e-01
   2.0401328e+06   8.8042535e-01
   2.0419335e+06   1.1481735e+00
   2.0437341e+06   1.3642204e+00
   2.0455347e+06   1.5276468e+00
   2.0473354e+06   1.6384905e+00
   2.0491360e+06   1.6950920e+00
   2.0509367e+06   1.6866260e+00
   2.0527373e+06   1.6011356e+00
   2.0545380e+06   1.4413084e+00
   2.0563386e+06   1.2180736e+00
   2.0581393e+06   9.4541340e-01
   2.0599399e+06   6.3964254e-01
   2.0617406e+06   3.2304768e-01
   2.0635412e+06   1.7896300e-02
   2.0653419e+06  -2.6598710e-01
   2.0671425e+06  -5.2239701e-01
   2.0689432e+06  -7.3383494e-01
   2.0707438e+06  -8.7631750e-01
   2.0725444e+06  -9.2341350e-01
   2.0743451e+06  -8.5319389e-01
   2.0761457e+06  -6.6636178e-01
   2.0779464e+06  -3.8043156e-01
   2.0797470e+06  -3.7530691e-02
   2.0815477e+06   3.1217630e-01
   2.0833483e+06   6.3198074e-01
   2.0851490e+06   8.9767195e-01
   2.0869496e+06   1.1074225e+00
   2.0887503e+06   1.2690080e+00
   2.0905509e+06   1.3871520e+00
   2.0923516e+06   1.4625767e+00
   2.0941522e+06   1.4880489e+00
   2.0959529e+06   1.4538912e+00
   2.0977535e+06   1.3557437e+00
   2.0995542e+06   1.1943440e+00
   2.1013548e+06   9.8026736e-01
   2.1031554e+06   7.2931503e-01
   2.1049561e+06   4.6033197e-01
   2.1067567e+06   1.9183949e-01
   2.1085574e+06  -6.4051545e-02
   2.1103580e+06  -2.9778472e-01
   2.1121587e+06  -4.9742081e-01
   2.1139593e+06  -6.4781417e-01
   2.1157600e+06  -7.2570733e-01
   2.1175606e+06  -7.0710770e-01
   2.1193613e+06  -5.8099825e-01
   2.1211619e+06  -3.4988651e-01
   2.1229626e+06  -4.6690008e-02
   2.1247632e+06   2.8254504e-01
   2.1265639e+06   5.9550435e-01
   2.1283645e+06   8.5917682e-01
   2.1301651e+06   1.0689437e+00
   2.1319658e+06   1.2328688e+00
   2.1337664e+06   1.3566571e+00
   2.1355671e+06   1.4423111e+00
   2.1373677e+06   1.4842879e+00
   2.1391684e+06   1.4743885e+00
   2.1409690e+06   1.4077210e+00
   2.1427697e+06   1.2823570e+00
   2.1445703e+06   1.1014825e+00
   2.1463710e+06   8.7308346e-01
   2.1481716e+06   6.1594485e-01
   2.1499723e+06   3.5185947e-01
   2.1517729e+06   9.4383066e-02
   2.1535736e+06  -1.4727177e-01
   2.1553742e+06  -3.6481356e-01
   2.1571748e+06  -5.4772447e-01
   2.1589755e+06  -6.7510398e-01
   2.1607761e+06  -7.2278395e-01
   2.1625768e+06  -6.7333533e-01
   2.1643774e+06  -5.1929384e-01
   2.1661781e+06  -2.8112500e-01
   2.1679787e+06   6.2878371e-03
   2.1697794e+06   3.0089173e-01
   2.1715800e+06   5.6364065e-01
   2.1733807e+06   7.7920143e-01
   2.1751813e+06   9.4528619e-01
   2.1769820e+06   1.0679297e+00
   2.1787826e+06   1.1553060e+00
   2.1805833e+06   1.2111057e+00
   2.1823839e+06   1.2346900e+00
   2.1841845e+06   1.2165841e+00
   2.1859852e+06   1.1464547e+00
   2.1877858e+06   1.0270901e+00
   2.1895865e+06   8.6789918e-01
   2.1913871e+06   6.7988282e-01
   2.1931878e+06   4.7447961e-01
   2.1949884e+06   2.6341631e-01
   2.1967891e+06   5.8128798e-02
   2.1985897e+06  -1.3176088e-01
   2.2003904e+06  -2.9685204e-01
   2.2021910e+06  -4.2501249e-01
   2.2039917e+06  -5.0099850e-01
   2.2057923e+06  -5.0183221e-01
   2.2075930e+06  -4.0777298e-01
   2.2093936e+06  -2.2756636e-01
   2.2111943e+06   1.3871710e-02
   2.2129949e+06   2.7862279e-01
   2.2147955e+06   5.2788993e-01
   2.2165962e+06   7.4099643e-01
   2.2183968e+06   9.0908334e-01
   2.2201975e+06   1.0375592e+00
   2.2219981e+06   1.1362275e+00
   2.2237988e+06   1.2081749e+00
   2.2255994e+06   1.2519119e+00
   2.2274001e+06   1.2607793e+00
   2.2292007e+06   1.2271094e+00
   2.2310014e+06   1.1480517e+00
   2.2328020e+06   1.0244720e+00
   2.2346027e+06   8.6335737e-01
   2.2364033e+06   6.7476382e-01
   2.2382040e+06   4.7062439e-01
   2.2400046e+06   2.6277436e-01
   2.2418052e+06   5.9593838e-02
   2.2436059e+06  -1.3123672e-01
   2.2454065e+06  -2.9815912e-01
   2.2472072e+06  -4.2669227e-01
   2.2490078e+06  -4.9765522e-01
   2.2508085e+06  -4.9297203e-01
   2.2526091e+06  -4.0777415e-01
   2.2544098e+06  -2.4792056e-01
   2.2562104e+06  -3.9460867e-02
   2.2580111e+06   1.8392712e-01
   2.2598117e+06   3.9280918e-01
   2.2616124e+06   5.6482449e-01
   2.2634130e+06   6.9774154e-01
   2.2652137e+06   7.9869077e-01
   2.2670143e+06   8.7727468e-01
   2.2688149e+06   9.4075892e-01
   2.2706156e+06   9.8391012e-01
   2.2724162e+06   9.9717665e-01
   2.2742169e+06   9.7617547e-01
   2.2760175e+06   9.1967099e-01
   2.2778182e+06   8.2890038e-01
   2.2796188e+06   7.0775540e-01
   2.2814195e+06   5.6732363e-01
   2.2832201e+06   4.1977057e-01
   2.2850208e+06   2.6869873e-01
   2.2868214e+06   1.1535915e-01
   2.2886221e+06  -3.2366625e-02
   2.2904227e+06  -1.6187424e-01
   2.2922234e+06  -2.5366714e-01
   2.2940240e+06  -2.8806518e-01
   2.2958246e+06  -2.5666748e-01
   2.2976253e+06  -1.5909918e-01
   2.2994259e+06  -7.6071661e-03
   2.3012266e+06   1.7792973e-01
   2.3030272e+06   3.6742763e-01
   2.3048279e+06   5.3231597e-01
   2.3066285e+06   6.6797755e-01
   2.3084292e+06   7.8029816e-01
   2.3102298e+06   8.7493320e-01
   2.3120305e+06   9.5556708e-01
   2.3138311e+06   1.0202581e+00
   2.3156318e+06   1.0640477e+00
   2.3174324e+06   1.0793668e+00
   2.3192331e+06   1.0590949e+00
   2.3210337e+06   1.0021837e+00
   2.3228344e+06   9.1117579e-01
   2.3246350e+06   7.9255315e-01
   2.3264356e+06   6.5360414e-01
   2.3282363e+06   4.9846298e-01
   2.3300369e+06   3.3106082e-01
   2.3318376e+06   1.6056491e-01
   2.3336382e+06  -1.6873554e-03
   2.3354389e+06  -1.4489587e-01
   2.3372395e+06  -2.5704880e-01
   2.3390402e+06  -3.1970273e-01
   2.3408408e+06  -3.1653889e-01
   2.3426415e+06  -2.5166335e-01
   2.3444421e+06  -1.3971643e-01
   2.3462428e+06  -2.7045120e-03
   2.3480434e+06   1.3728511e-01
   2.3498441e+06   2.6914478e-01
   2.3516447e+06   3.8782625e-01
   2.3534453e+06   4.9369391e-01
   2.3552460e+06   5.8916644e-01
   2.3570466e+06   6.7669343e-01
   2.3588473e+06   7.5662388e-01
   2.3606479e+06   8.2089947e-01
   2.3624486e+06   8.5965845e-01
   2.3642492e+06   8.7017285e-01
   2.3660499e+06   8.5298305e-01
   2.3678505e+06   8.0910730e-01
   2.3696512e+06   7.3979057e-01
   2.3714518e+06   6.4702180e-01
   2.3732525e+06   5.3341068e-01
   2.3750531e+06   4.0293577e-01
   2.3768538e+06   2.6184303e-01
   2.3786544e+06   1.2354636e-01
   2.3804550e+06   3.6744461e-03
   2.3822557e+06  -8.5289418e-02
   2.3840563e+06  -1.3282598e-01
   2.3858570e+06  -1.3056941e-01
   2.3876576e+06  -7.5605557e-02
   2.3894583e+06   1.5599348e-02
   2.3912589e+06   1.2156724e-01
   2.3930596e+06   2.3314028e-01
   2.3948602e+06   3.4714475e-01
   2.3966609e+06   4.6267316e-01
   2.3984615e+06   5.7897145e-01
   2.4002622e+06   6.9308419e-01
   2.4020628e+06   8.0076778e-01
   2.4038635e+06   8.9635073e-01
   2.4056641e+06   9.7332282e-01
   2.4074648e+06   1.0238679e+00
   2.4092654e+06   1.0411519e+00
   2.4110660e+06   1.0245613e+00
   2.4128667e+06   9.7567014e-01
   2.4146673e+06   8.9456293e-01
   2.4164680e+06   7.8182816e-01
   2.4182686e+06   6.4323472e-01
   2.4200693e+06   4.8637215e-01
   2.4218699e+06   3.1748340e-01
   2.4236706e+06   1.4452912e-01
   2.4254712e+06  -1.4769540e-02
   2.4272719e+06  -1.4131980e-01
   2.4290725e+06  -2.2677912e-01
   2.4308732e+06  -2.6860438e-01
   2.4326738e+06  -2.6964410e-01
   2.4344745e+06  -2.3481108e-01
   2.4362751e+06  -1.6945850e-01
   2.4380757e+06  -7.8699805e-02
   2.4398764e+06   3.3696714e-02
   2.4416770e+06   1.6326766e-01
   2.4434777e+06   3.0040666e-01
   2.4452783e+06   4.3484001e-01
   2.4470790e+06   5.6225873e-01
   2.4488796e+06   6.8047502e-01
   2.4506803e+06   7.8577481e-01
   2.4524809e+06   8.7287192e-01
   2.4542816e+06   9.3287782e-01
   2.4560822e+06   9.5714010e-01
   2.4578829e+06   9.4389955e-01
   2.4596835e+06   8.9475727e-01
   2.4614842e+06   8.1368576e-01
   2.4632848e+06   7.0502569e-01
   2.4650854e+06   5.7118171e-01
   2.4668861e+06   4.1625079e-01
   2.4686867e+06   2.5467300e-01
   2.4704874e+06   1.0411367e-01
   2.4722880e+06  -2.1322615e-02
   2.4740887e+06  -1.1101387e-01
   2.4758893e+06  -1.6229797e-01
   2.4776900e+06  -1.7576437e-01
   2.4794906e+06  -1.5287946e-01
   2.4812913e+06  -9.5070796e-02
   2.4830919e+06  -2.7044312e-03
   2.4848926e+06   1.2230212e-01
   2.4866932e+06   2.6983375e-01
   2.4884939e+06   4.2769270e-01
   2.4902945e+06   5.8845476e-01
   2.4920951e+06   7.4597971e-01
   2.4938958e+06   8.9107949e-01
   2.4956964e+06   1.0140808e+00
   2.4974971e+06   1.1085398e+00
   2.4992977e+06   1.1690420e+00
   2.5010984e+06   1.1891415e+00
   2.5028990e+06   1.1633302e+00
   2.5046997e+06   1.0918572e+00
   2.5065003e+06   9.7736124e-01
   2.5083010e+06   8.2304902e-01
   2.5101016e+06   6.3485323e-01
   2.5119023e+06   4.2944699e-01
   2.5137029e+06   2.2594065e-01
   2.5155036e+06   3.6554619e-02
   2.5173042e+06  -1.3030523e-01
   2.5191049e+06  -2.7043905e-01
   2.5209055e+06  -3.7996460e-01
   2.5227061e+06  -4.5016950e-01
   2.5245068e+06  -4.7101017e-01
   2.5263074e+06  -4.3475129e-01
   2.5281081e+06  -3.3776312e-01
   2.5299087e+06  -1.8945930e-01
   2.5317094e+06  -5.3192383e-03
   2.5335100e+06   1.9449141e-01
   2.5353107e+06   3.9102642e-01
   2.5371113e+06   5.7689749e-01
   2.5389120e+06   7.4874488e-01
   2.5407126e+06   9.0149956e-01
   2.5425133e+06   1.0284907e+00
   2.5443139e+06   1.1198747e+00
   2.5461146e+06   1.1659559e+00
   2.5479152e+06   1.1624277e+00
   2.5497158e+06   1.1079890e+00
   2.5515165e+06   1.0051523e+00
   2.5533171e+06   8.5953969e-01
   2.5551178e+06   6.8403794e-01
   2.5569184e+06   4.9304511e-01
   2.5587191e+06   2.9623102e-01
   2.5605197e+06   1.0227553e-01
   2.5623204e+06  -7.6529030e-02
   2.5641210e+06  -2.2779356e-01
   2.5659217e+06  -3.4472169e-01
   2.5677223e+06  -4.2029813e-01
   2.5695230e+06  -4.3764711e-01
   2.5713236e+06  -3.8110983e-01
   2.5731243e+06  -2.5552926e-01
   2.5749249e+06  -7.4571039e-02
   2.5767255e+06   1.4363240e-01
   2.5785262e+06   3.7944031e-01
   2.5803268e+06   6.1257522e-01
   2.5821275e+06   8.2613840e-01
   2.5839281e+06   1.0180227e+00
   2.5857288e+06   1.1884844e+00
   2.5875294e+06   1.3250735e+00
   2.5893301e+06   1.4118879e+00
   2.5911307e+06   1.4387789e+00
   2.5929314e+06   1.4006227e+00
   2.5947320e+06   1.3036077e+00
   2.5965327e+06   1.1568451e+00
   2.5983333e+06   9.6469136e-01
   2.6001340e+06   7.3294023e-01
   2.6019346e+06   4.8121224e-01
   2.6037352e+06   2.3088835e-01
   2.6055359e+06  -1.0554543e-02
   2.6073365e+06  -2.3928846e-01
   2.6091372e+06  -4.4509762e-01
   2.6109378e+06  -6.1399433e-01
   2.6127385e+06  -7.2656518e-01
   2.6145391e+06  -7.6263277e-01
   2.6163398e+06  -7.0660654e-01
   2.6181404e+06  -5.5235894e-01
   2.6199411e+06  -3.2582171e-01
   2.6217417e+06  -6.2514382e-02
   2.6235424e+06   2.0993657e-01
   2.6253430e+06   4.7069765e-01
   2.6271437e+06   7.1377628e-01
   2.6289443e+06   9.3665919e-01
   2.6307450e+06   1.1297469e+00
   2.6325456e+06   1.2811591e+00
   2.6343462e+06   1.3806520e+00
   2.6361469e+06   1.4197808e+00
   2.6379475e+06   1.3947252e+00
   2.6397482e+06   1.3051082e+00
   2.6415488e+06   1.1580930e+00
   2.6433495e+06   9.6414374e-01
   2.6451501e+06   7.3653564e-01
   2.6469508e+06   4.8965063e-01
   2.6487514e+06   2.3857854e-01
   2.6505521e+06  -3.7068795e-03
   2.6523527e+06  -2.3402362e-01
   2.6541534e+06  -4.4786661e-01
   2.6559540e+06  -6.2075136e-01
   2.6577547e+06  -7.2253244e-01
   2.6595553e+06  -7.2926770e-01
   2.6613559e+06  -6.2670408e-01
   2.6631566e+06  -4.3074126e-01
   2.6649572e+06  -1.6859049e-01
   2.6667579e+06   1.2931410e-01
   2.6685585e+06   4.3452309e-01
   2.6703592e+06   7.3023904e-01
   2.6721598e+06   1.0042250e+00
   2.6739605e+06   1.2462742e+00
   2.6757611e+06   1.4468108e+00
   2.6775618e+06   1.5962363e+00
   2.6793624e+06   1.6845692e+00
   2.6811631e+06   1.7002982e+00
   2.6829637e+06   1.6351009e+00
   2.6847644e+06   1.4960779e+00
   2.6865650e+06   1.2957411e+00
   2.6883656e+06   1.0468282e+00
   2.6901663e+06   7.6295724e-01
   2.6919669e+06   4.6160043e-01
   2.6937676e+06   1.5902618e-01
   2.6955682e+06  -1.3913781e-01
   2.6973689e+06  -4.2833038e-01
   2.6991695e+06  -6.9290202e-01
   2.7009702e+06  -9.0924843e-01
   2.7027708e+06  -1.0371767e+00
   2.7045715e+06  -1.0392377e+00
   2.7063721e+06  -9.1248624e-01
   2.7081728e+06  -6.7226531e-01
   2.7099734e+06  -3.5980679e-01
   2.7117741e+06  -2.0492761e-02
   2.7135747e+06   3.1852280e-01
   2.7153754e+06   6.3903238e-01
   2.7171760e+06   9.3326196e-01
   2.7189766e+06   1.1950971e+00
   2.7207773e+06   1.4110806e+00
   2.7225779e+06   1.5666853e+00
   2.7243786e+06   1.6535728e+00
   2.7261792e+06   1.6657570e+00
   2.7279799e+06   1.5981499e+00
   2.7297805e+06   1.4504553e+00
   2.7315812e+06   1.2410506e+00
   2.7333818e+06   9.9226999e-01
   2.7351825e+06   7.1669139e-01
   2.7369831e+06   4.2312929e-01
   2.7387838e+06   1.1897040e-01
   2.7405844e+06  -1.8747800e-01
   2.7423851e+06  -4.8229292e-01
   2.7441857e+06  -7.4571394e-01
   2.7459863e+06  -9.4182891e-01
   2.7477870e+06  -1.0325869e+00
   2.7495876e+06  -9.9340956e-01
   2.7513883e+06  -8.1420183e-01
   2.7531889e+06  -5.2523301e-01
   2.7549896e+06  -1.7010781e-01
   2.7567902e+06   2.0785929e-01
   2.7585909e+06   5.7204874e-01
   2.7603915e+06   9.1178618e-01
   2.7621922e+06   1.2235781e+00
   2.7639928e+06   1.4977853e+00
