\relax 
\providecommand\hyper@newdestlabel[2]{}
\providecommand\babel@aux[2]{}
\@nameuse{bbl@beforestart}
\catcode `:\active 
\catcode `;\active 
\catcode `!\active 
\catcode `?\active 
\providecommand\HyperFirstAtBeginDocument{\AtBeginDocument}
\HyperFirstAtBeginDocument{\ifx\hyper@anchor\@undefined
\global\let\oldcontentsline\contentsline
\gdef\contentsline#1#2#3#4{\oldcontentsline{#1}{#2}{#3}}
\global\let\oldnewlabel\newlabel
\gdef\newlabel#1#2{\newlabelxx{#1}#2}
\gdef\newlabelxx#1#2#3#4#5#6{\oldnewlabel{#1}{{#2}{#3}}}
\AtEndDocument{\ifx\hyper@anchor\@undefined
\let\contentsline\oldcontentsline
\let\newlabel\oldnewlabel
\fi}
\fi}
\global\let\hyper@last\relax 
\gdef\HyperFirstAtBeginDocument#1{#1}
\providecommand\HyField@AuxAddToFields[1]{}
\providecommand\HyField@AuxAddToCoFields[2]{}
\bibstyle{agufull04}
\babel@aux{french}{}
\citation{senechalWaveRunupExtreme2010}
\citation{wrightMORPHODYNAMICVARIABILITYSURFa}
\@writefile{toc}{\contentsline {chapter}{\numberline {1}Introduction}{3}{chapter.1}\protected@file@percent }
\@writefile{lof}{\addvspace {10\p@ }}
\@writefile{lot}{\addvspace {10\p@ }}
\citation{Desquilbet2019}
\citation{Sandve2013}
\citation{bosboomCoastalDynamics2021a}
\citation{bosboomCoastalDynamics2021a}
\citation{bosboomCoastalDynamics2021a}
\@writefile{toc}{\contentsline {section}{\numberline {1.1}Système MEPELS}{4}{section.1.1}\protected@file@percent }
\@writefile{toc}{\contentsline {section}{\numberline {1.2}État de l'Art sur la morpho-dynamique des plage sableuses}{4}{section.1.2}\protected@file@percent }
\@writefile{toc}{\contentsline {subsection}{\numberline {1.2.1}Vagues}{4}{subsection.1.2.1}\protected@file@percent }
\newlabel{vagues}{{1.2.1}{4}{Vagues}{subsection.1.2.1}{}}
\@writefile{lof}{\contentsline {figure}{\numberline {1.1}{\ignorespaces Schéma des quantités relatives d'énergie en fonction de la période des vagues de l'océan. La ligne supérieure donne la classification basée sur la longueur d'onde, la ligne centrale la classification basée sur la force génératrice de la vague, et la ligne inférieure la classification basée sur la force de restauration. Schéma tiré du livre de \citet  {bosboomCoastalDynamics2021a} p.94\relax }}{4}{figure.caption.3}\protected@file@percent }
\providecommand*\caption@xref[2]{\@setref\relax\@undefined{#1}}
\newlabel{fig:eda:frq_vs_energie}{{1.1}{4}{Schéma des quantités relatives d'énergie en fonction de la période des vagues de l'océan. La ligne supérieure donne la classification basée sur la longueur d'onde, la ligne centrale la classification basée sur la force génératrice de la vague, et la ligne inférieure la classification basée sur la force de restauration. Schéma tiré du livre de \citet {bosboomCoastalDynamics2021a} p.94\relax }{figure.caption.3}{}}
\citation{bosboomCoastalDynamics2021a}
\citation{bosboomCoastalDynamics2021a}
\citation{wrightMORPHODYNAMICVARIABILITYSURF}
\@writefile{lof}{\contentsline {figure}{\numberline {1.2}{\ignorespaces Représentation des zones de shoaling, surf et swash sur un littoral dissipatif. Image tiré du livre de \citet  {bosboomCoastalDynamics2021a} p.232\relax }}{5}{figure.caption.4}\protected@file@percent }
\newlabel{fig:eda_area_&_current}{{1.2}{5}{Représentation des zones de shoaling, surf et swash sur un littoral dissipatif. Image tiré du livre de \citet {bosboomCoastalDynamics2021a} p.232\relax }{figure.caption.4}{}}
\citation{bosboomCoastalDynamics2021a}
\citation{bosboomCoastalDynamics2021a}
\citation{bosboomCoastalDynamics2021a}
\@writefile{lof}{\contentsline {figure}{\numberline {1.3}{\ignorespaces Type de déferlement en fonction de la cambrure $\epsilon $. Figure tiré du livre de \citet  {bosboomCoastalDynamics2021a} p.183\relax }}{6}{figure.caption.5}\protected@file@percent }
\newlabel{fig:eda:breaker_type}{{1.3}{6}{Type de déferlement en fonction de la cambrure $\epsilon $. Figure tiré du livre de \citet {bosboomCoastalDynamics2021a} p.183\relax }{figure.caption.5}{}}
\citation{masselink1993}
\@writefile{toc}{\contentsline {subsection}{\numberline {1.2.2}Marée}{7}{subsection.1.2.2}\protected@file@percent }
\newlabel{maree}{{1.2.2}{7}{Marée}{subsection.1.2.2}{}}
\@writefile{toc}{\contentsline {subsection}{\numberline {1.2.3}Courant}{7}{subsection.1.2.3}\protected@file@percent }
\newlabel{courant}{{1.2.3}{7}{Courant}{subsection.1.2.3}{}}
\citation{wrightMORPHODYNAMICVARIABILITYSURF}
\citation{masselink1993}
\citation{bruneauFieldObservationsEvolving2009b}
\@writefile{lof}{\contentsline {figure}{\numberline {1.4}{\ignorespaces Rip current résultant d'un front d'onde orthogonal à la plage. Image de Bosboom 2021 p.234\relax }}{8}{figure.caption.6}\protected@file@percent }
\newlabel{fig:eda-rip_current_straight}{{1.4}{8}{Rip current résultant d'un front d'onde orthogonal à la plage. Image de Bosboom 2021 p.234\relax }{figure.caption.6}{}}
\citation{bosboomCoastalDynamics2021a}
\citation{chauchatLectureNotesTwophase}
\citation{bosboomCoastalDynamics2021a}
\citation{bosboomCoastalDynamics2021a}
\@writefile{toc}{\contentsline {subsection}{\numberline {1.2.4}Transport de sédiments}{9}{subsection.1.2.4}\protected@file@percent }
\newlabel{transport_de_sediments}{{1.2.4}{9}{Transport de sédiments}{subsection.1.2.4}{}}
\@writefile{lof}{\contentsline {figure}{\numberline {1.5}{\ignorespaces Représentation schématique des possibilités de transport sédimentaires. En roulant sur le lit (a), en faisant de petits sauts (b) ou en suspension (c). Schéma tié du livre de \citet  {bosboomCoastalDynamics2021a} p.284\relax }}{9}{figure.caption.7}\protected@file@percent }
\newlabel{fig:eda:depl_sed}{{1.5}{9}{Représentation schématique des possibilités de transport sédimentaires. En roulant sur le lit (a), en faisant de petits sauts (b) ou en suspension (c). Schéma tié du livre de \citet {bosboomCoastalDynamics2021a} p.284\relax }{figure.caption.7}{}}
\citation{wrightMORPHODYNAMICVARIABILITYSURF}
\citation{masselink1993}
\citation{wrightMORPHODYNAMICVARIABILITYSURF}
\@writefile{toc}{\contentsline {subsection}{\numberline {1.2.5}Classification des états morpholodynamiques}{10}{subsection.1.2.5}\protected@file@percent }
\newlabel{Classification_des_etats_morphodynamiques}{{1.2.5}{10}{Classification des états morpholodynamiques}{subsection.1.2.5}{}}
\citation{hallermeierUSESCALCULATEDLIMITa}
\@writefile{lof}{\contentsline {figure}{\numberline {1.6}{\ignorespaces Modèle créer par Masselink and Short 1993 sur la base des travaux de Wright and Short 1983 avec l'ajout de l'influence du marnage normalisé (MSR / Hb). Les plages sont différenciées en 8 catégories.\relax }}{11}{figure.caption.8}\protected@file@percent }
\newlabel{fig:eta_modele_plage_rtr}{{1.6}{11}{Modèle créer par Masselink and Short 1993 sur la base des travaux de Wright and Short 1983 avec l'ajout de l'influence du marnage normalisé (MSR / Hb). Les plages sont différenciées en 8 catégories.\relax }{figure.caption.8}{}}
\@writefile{toc}{\contentsline {subsection}{\numberline {1.2.6}Modèle morphodynamique: Xbeach}{12}{subsection.1.2.6}\protected@file@percent }
\citation{bosboomCoastalDynamics2021a}
\@writefile{toc}{\contentsline {subsection}{\numberline {1.2.7}Références niveaux verticaux}{13}{subsection.1.2.7}\protected@file@percent }
\newlabel{norme_for_zero}{{1.2.7}{13}{Références niveaux verticaux}{subsection.1.2.7}{}}
\@writefile{toc}{\contentsline {subsection}{\numberline {1.2.8}Système de Coordonnées}{14}{subsection.1.2.8}\protected@file@percent }
\newlabel{systeme_coordonnees}{{1.2.8}{14}{Système de Coordonnées}{subsection.1.2.8}{}}
\citation{senechalWaveRunupExtreme2010}
\@writefile{toc}{\contentsline {chapter}{\numberline {2}Utilisation du système: Plage du Truc Vert}{15}{chapter.2}\protected@file@percent }
\@writefile{lof}{\addvspace {10\p@ }}
\@writefile{lot}{\addvspace {10\p@ }}
\newlabel{utilisation}{{2}{15}{Utilisation du système: Plage du Truc Vert}{chapter.2}{}}
\@writefile{lof}{\contentsline {figure}{\numberline {2.1}{\ignorespaces Schéma représentant les 3 modules principaux constituant le système MEPELS et leurs liens.\relax }}{15}{figure.caption.9}\protected@file@percent }
\newlabel{sch:partie_princ_MEPELS}{{2.1}{15}{Schéma représentant les 3 modules principaux constituant le système MEPELS et leurs liens.\relax }{figure.caption.9}{}}
\@writefile{lof}{\contentsline {figure}{\numberline {2.2}{\ignorespaces Schéma regroupant tous les modules présents à ce jour dans le système MEPELS. Dans chacune des parties, les codes sont présentés par des rectangles sur fond blanc avec l'extension des fichiers associés en gris.\relax }}{16}{figure.caption.10}\protected@file@percent }
\newlabel{sch:module_systeme_MEPELS}{{2.2}{16}{Schéma regroupant tous les modules présents à ce jour dans le système MEPELS. Dans chacune des parties, les codes sont présentés par des rectangles sur fond blanc avec l'extension des fichiers associés en gris.\relax }{figure.caption.10}{}}
\@writefile{toc}{\contentsline {section}{\numberline {2.1}Utilisation module pré-traitement}{17}{section.2.1}\protected@file@percent }
\@writefile{toc}{\contentsline {subsection}{\numberline {2.1.1}Récupération du système MEPELS}{17}{subsection.2.1.1}\protected@file@percent }
\@writefile{toc}{\contentsline {subsection}{\numberline {2.1.2}Pré-traitement MNT}{17}{subsection.2.1.2}\protected@file@percent }
\newlabel{explic:pretraitement}{{2.1.2}{17}{Pré-traitement MNT}{subsection.2.1.2}{}}
\@writefile{toc}{\contentsline {subsubsection}{\numberline {2.1.2.1}Fichier de configuration}{17}{subsubsection.2.1.2.1}\protected@file@percent }
\newlabel{fichier_de_configuration}{{2.1.2.1}{17}{Fichier de configuration}{subsubsection.2.1.2.1}{}}
\@writefile{toc}{\contentsline {subsubsection}{\numberline {2.1.2.2}Run pré-traitement}{20}{subsubsection.2.1.2.2}\protected@file@percent }
\newlabel{run_pretraitement_trucvert}{{2.1.2.2}{20}{Run pré-traitement}{subsubsection.2.1.2.2}{}}
\@writefile{lof}{\contentsline {figure}{\numberline {2.3}{\ignorespaces Première figure sortant du module de pré-traitement mnt. La figure correspond à la visualisation des données bathymétriques brutes avec en rouge le rectangle de la zone d'étude choisie via le fichier de configuration de la plage du Truc Vert: trucvertconfig.yaml. La plage est à droite et l'océan à gauche.\relax }}{21}{figure.caption.11}\protected@file@percent }
\newlabel{fig_pretrait:bathy_brute_zone_etude}{{2.3}{21}{Première figure sortant du module de pré-traitement mnt. La figure correspond à la visualisation des données bathymétriques brutes avec en rouge le rectangle de la zone d'étude choisie via le fichier de configuration de la plage du Truc Vert: trucvertconfig.yaml. La plage est à droite et l'océan à gauche.\relax }{figure.caption.11}{}}
\@writefile{lof}{\contentsline {figure}{\numberline {2.4}{\ignorespaces Visualisation après interpolation et remplacement des valeurs manquantes de la zone d'étude. La plage est en bas et l'océan en haut.\relax }}{22}{figure.caption.12}\protected@file@percent }
\newlabel{fig_pretrait:bathy_avant_filtrage}{{2.4}{22}{Visualisation après interpolation et remplacement des valeurs manquantes de la zone d'étude. La plage est en bas et l'océan en haut.\relax }{figure.caption.12}{}}
\citation{masselink1993}
\@writefile{lof}{\contentsline {figure}{\numberline {2.5}{\ignorespaces Visualisation de la bathymétrie afin de déterminer si une inversion de la bathymétrie est nécessaire.\relax }}{23}{figure.caption.13}\protected@file@percent }
\newlabel{fig_pretrait:bathy_local_coord}{{2.5}{23}{Visualisation de la bathymétrie afin de déterminer si une inversion de la bathymétrie est nécessaire.\relax }{figure.caption.13}{}}
\@writefile{toc}{\contentsline {section}{\numberline {2.2}Analyse bathymétrique MNT}{23}{section.2.2}\protected@file@percent }
\newlabel{analyse_bathymetrique_trucvert}{{2.2}{23}{Analyse bathymétrique MNT}{section.2.2}{}}
\@writefile{toc}{\contentsline {subsection}{\numberline {2.2.1}Fichier de configuration}{24}{subsection.2.2.1}\protected@file@percent }
\newlabel{fichier_config_analyse_preproc}{{2.2.1}{24}{Fichier de configuration}{subsection.2.2.1}{}}
\@writefile{toc}{\contentsline {subsection}{\numberline {2.2.2}Run analyse bathymétrique}{24}{subsection.2.2.2}\protected@file@percent }
\newlabel{run_analyse_bathymetrique_trucvert}{{2.2.2}{24}{Run analyse bathymétrique}{subsection.2.2.2}{}}
\citation{deanEquilibriumBeachProfiles1991}
\citation{deanEquilibriumBeachProfiles1991}
\citation{bosboomCoastalDynamics2021a}
\citation{bosboomCoastalDynamics2021a}
\@writefile{lof}{\contentsline {figure}{\numberline {2.6}{\ignorespaces Visualisation du profile cross-shore de la plage du Truc Vert avec le profils moyen (trait noire), un ajustement avec le profil de Dean (\citet  {deanEquilibriumBeachProfiles1991})(trait vert), les profils le long du long-shore (trait gris) et un nombre réduit de marqueurs permettant de définir la zone morphodynamique active entre la valeur du DOC (trait bleu) et la valeur du HTL (trait rouge) définit à partir de la norme zéro hydrographique. La position du zéro hydrographique (trait pointillé gris) est calculé en fonction de la plage, permettant le calcul de LTL (trait pointillé bleu).\relax }}{25}{figure.caption.14}\protected@file@percent }
\newlabel{fig:cross-shore_analyse}{{2.6}{25}{Visualisation du profile cross-shore de la plage du Truc Vert avec le profils moyen (trait noire), un ajustement avec le profil de Dean (\citet {deanEquilibriumBeachProfiles1991})(trait vert), les profils le long du long-shore (trait gris) et un nombre réduit de marqueurs permettant de définir la zone morphodynamique active entre la valeur du DOC (trait bleu) et la valeur du HTL (trait rouge) définit à partir de la norme zéro hydrographique. La position du zéro hydrographique (trait pointillé gris) est calculé en fonction de la plage, permettant le calcul de LTL (trait pointillé bleu).\relax }{figure.caption.14}{}}
\citation{masselink1993}
\citation{masselink1993}
\@writefile{lof}{\contentsline {figure}{\numberline {2.7}{\ignorespaces Modèle permettant la définition du type de rupture de vagues (breaker waves) en fonction de la hauteur d'eau au point de rupture $H_b$ et d'un paramètre de similarité en accord avec \citet  {bosboomCoastalDynamics2021a}.\relax }}{26}{figure.caption.15}\protected@file@percent }
\newlabel{breaker_type}{{2.7}{26}{Modèle permettant la définition du type de rupture de vagues (breaker waves) en fonction de la hauteur d'eau au point de rupture $H_b$ et d'un paramètre de similarité en accord avec \citet {bosboomCoastalDynamics2021a}.\relax }{figure.caption.15}{}}
\@writefile{lof}{\contentsline {figure}{\numberline {2.8}{\ignorespaces Evolution du type de plage en accord avec le modèle proposé par \citet  {masselink1993} appliqué à la plage du Truc Vert durant la campagne ECORS pour les dates du 04/04 au 06/04 2008.\relax }}{27}{figure.caption.16}\protected@file@percent }
\newlabel{fig:type_de_plage}{{2.8}{27}{Evolution du type de plage en accord avec le modèle proposé par \citet {masselink1993} appliqué à la plage du Truc Vert durant la campagne ECORS pour les dates du 04/04 au 06/04 2008.\relax }{figure.caption.16}{}}
\@writefile{toc}{\contentsline {section}{\numberline {2.3}Modification bathymétrique MNT}{27}{section.2.3}\protected@file@percent }
\newlabel{modification_bathymetrique_mnt}{{2.3}{27}{Modification bathymétrique MNT}{section.2.3}{}}
\@writefile{toc}{\contentsline {subsection}{\numberline {2.3.1}Fichier de configuration}{27}{subsection.2.3.1}\protected@file@percent }
\newlabel{modif_bathy_example}{{2.3.1}{27}{Fichier de configuration}{subsection.2.3.1}{}}
\@writefile{toc}{\contentsline {subsection}{\numberline {2.3.2}Run modification bathymétrique mnt}{28}{subsection.2.3.2}\protected@file@percent }
\newlabel{run_modification_bathymétique_mnt}{{2.3.2}{28}{Run modification bathymétrique mnt}{subsection.2.3.2}{}}
\@writefile{lof}{\contentsline {figure}{\numberline {2.9}{\ignorespaces Bathymétrie re-modelée en fonction des choix fait dans le fichier de configuration. Ici, présence de deux barres rectilignes appliquées à un profil de Dean sur la plage du Truc Vert.\relax }}{29}{figure.caption.17}\protected@file@percent }
\newlabel{fig:remodelling_modif_bathy3D}{{2.9}{29}{Bathymétrie re-modelée en fonction des choix fait dans le fichier de configuration. Ici, présence de deux barres rectilignes appliquées à un profil de Dean sur la plage du Truc Vert.\relax }{figure.caption.17}{}}
\@writefile{lof}{\contentsline {figure}{\numberline {2.10}{\ignorespaces Comparaison du profil cross-shore moyen de la bathymétrie créée artificiellement (trait rouge) et du profil cross-shore central de la bathymétrie initiale (trait noire).\relax }}{30}{figure.caption.18}\protected@file@percent }
\newlabel{fig_modif_bathy:comp_profile_cross_shore}{{2.10}{30}{Comparaison du profil cross-shore moyen de la bathymétrie créée artificiellement (trait rouge) et du profil cross-shore central de la bathymétrie initiale (trait noire).\relax }{figure.caption.18}{}}
\@writefile{lof}{\contentsline {figure}{\numberline {2.11}{\ignorespaces Visualisation en 2D des profils cross-shore après le re-modelage.\relax }}{30}{figure.caption.19}\protected@file@percent }
\newlabel{fig:profil_final_2D}{{2.11}{30}{Visualisation en 2D des profils cross-shore après le re-modelage.\relax }{figure.caption.19}{}}
\@writefile{toc}{\contentsline {section}{\numberline {2.4}Modèle Morphodynamique et post-traitement}{31}{section.2.4}\protected@file@percent }
\@writefile{toc}{\contentsline {subsection}{\numberline {2.4.1}Modèle Morphodynamique}{31}{subsection.2.4.1}\protected@file@percent }
\newlabel{modele_morpho}{{2.4.1}{31}{Modèle Morphodynamique}{subsection.2.4.1}{}}
\@writefile{lof}{\contentsline {figure}{\numberline {2.12}{\ignorespaces  Visualisation de la bathymétrie avec les profondeurs positives.\relax }}{32}{figure.caption.20}\protected@file@percent }
\newlabel{fig:preproc_xbeach:bathy3D}{{2.12}{32}{Visualisation de la bathymétrie avec les profondeurs positives.\relax }{figure.caption.20}{}}
\@writefile{lof}{\contentsline {figure}{\numberline {2.13}{\ignorespaces \relax }}{32}{figure.caption.21}\protected@file@percent }
\newlabel{fig:preproc_xbeach:tide}{{2.13}{32}{\relax }{figure.caption.21}{}}
\@writefile{lof}{\contentsline {figure}{\numberline {2.14}{\ignorespaces Visualisation de la figure 3 obtenue lors de l'utilisation du code de pré-traitement Xbeach pour les données de hauteur d'eau (Hs), période (Tp) et direction (dir) prises entre le 4 et le 6 avril 2008.\relax }}{33}{figure.caption.22}\protected@file@percent }
\newlabel{fig:preproc_xbeach:Hs_Tp_dirTV0404}{{2.14}{33}{Visualisation de la figure 3 obtenue lors de l'utilisation du code de pré-traitement Xbeach pour les données de hauteur d'eau (Hs), période (Tp) et direction (dir) prises entre le 4 et le 6 avril 2008.\relax }{figure.caption.22}{}}
\@writefile{toc}{\contentsline {subsection}{\numberline {2.4.2}Lancer la simulation: Xbeach}{33}{subsection.2.4.2}\protected@file@percent }
\@writefile{toc}{\contentsline {subsection}{\numberline {2.4.3}Post-traitement}{33}{subsection.2.4.3}\protected@file@percent }
\newlabel{post-trait_QS}{{2.4.3}{33}{Post-traitement}{subsection.2.4.3}{}}
\citation{senechalWaveRunupExtreme2010}
\citation{senechalWaveRunupExtreme2010}
\@writefile{lof}{\contentsline {figure}{\numberline {2.15}{\ignorespaces Visualisation des paramètres Hs, Tp, et Dir relevés par un capteur sur la période du 04/04 au 06/04 2008 lors de la campagne ECORS.\relax }}{36}{figure.caption.23}\protected@file@percent }
\newlabel{fig:result_capt_mesure}{{2.15}{36}{Visualisation des paramètres Hs, Tp, et Dir relevés par un capteur sur la période du 04/04 au 06/04 2008 lors de la campagne ECORS.\relax }{figure.caption.23}{}}
\@writefile{lof}{\contentsline {figure}{\numberline {2.16}{\ignorespaces Visualisation à un temps "t" de la hauteur d'eau sur la bathymétrie (haut) et de l'évolution jusqu'à un moment "t" des paramètres Tide, U et Hs (bas)\relax }}{37}{figure.caption.24}\protected@file@percent }
\newlabel{fig:coupure_movie}{{2.16}{37}{Visualisation à un temps "t" de la hauteur d'eau sur la bathymétrie (haut) et de l'évolution jusqu'à un moment "t" des paramètres Tide, U et Hs (bas)\relax }{figure.caption.24}{}}
\@writefile{toc}{\contentsline {section}{\numberline {2.5}Cas morphodynamique: Plage du Truc Vert}{38}{section.2.5}\protected@file@percent }
\@writefile{toc}{\contentsline {subsection}{\numberline {2.5.1}Pré-traitement}{38}{subsection.2.5.1}\protected@file@percent }
\@writefile{toc}{\contentsline {subsection}{\numberline {2.5.2}Modèle morphodynamique}{38}{subsection.2.5.2}\protected@file@percent }
\newlabel{def_fichier_xbeach_morpho}{{2.5.2}{38}{Modèle morphodynamique}{subsection.2.5.2}{}}
\@writefile{toc}{\contentsline {subsection}{\numberline {2.5.3}Lancer la simulations: Xbeach}{38}{subsection.2.5.3}\protected@file@percent }
\@writefile{toc}{\contentsline {subsection}{\numberline {2.5.4}Post-traitement}{39}{subsection.2.5.4}\protected@file@percent }
\@writefile{lof}{\contentsline {figure}{\numberline {2.17}{\ignorespaces Comparaison des profils cross-shore avant calcul (en haut) et après calcul (en bas). Les figures de droite correspondent à la soustraction de la courbe cross-shore moyenne et le profil ajusté.\relax }}{41}{figure.caption.25}\protected@file@percent }
\newlabel{fig:post_xbeach:comp_cross_shore}{{2.17}{41}{Comparaison des profils cross-shore avant calcul (en haut) et après calcul (en bas). Les figures de droite correspondent à la soustraction de la courbe cross-shore moyenne et le profil ajusté.\relax }{figure.caption.25}{}}
\@writefile{lof}{\contentsline {figure}{\numberline {2.18}{\ignorespaces Comparaison des bathymétries avant et après calcul pour les dates du 03/03/08 au 04/04/08, montrant une évolution morphodynamique. La barre externe est devenue plus large, les croissants sont déformés et le haut de plage à reculer (augmentation de la hauteur du haut de plage).\relax }}{42}{figure.caption.26}\protected@file@percent }
\newlabel{fig:post_xbeach:comp_pos_barre_morpho}{{2.18}{42}{Comparaison des bathymétries avant et après calcul pour les dates du 03/03/08 au 04/04/08, montrant une évolution morphodynamique. La barre externe est devenue plus large, les croissants sont déformés et le haut de plage à reculer (augmentation de la hauteur du haut de plage).\relax }{figure.caption.26}{}}
\@writefile{lof}{\contentsline {figure}{\numberline {2.19}{\ignorespaces Visualisation de la dernière sortie de Xbeach, bathymétrie 2D.\relax }}{43}{figure.caption.27}\protected@file@percent }
\newlabel{fig:posproc_xbeach:bathy2D}{{2.19}{43}{Visualisation de la dernière sortie de Xbeach, bathymétrie 2D.\relax }{figure.caption.27}{}}
\@writefile{lof}{\contentsline {figure}{\numberline {2.20}{\ignorespaces Comparaison en 2D de la bathymétrie avant (en haut) et après (en bas) calcul de Xbeach. Le haut de plage est plus élevé et les croissants sont déformés.\relax }}{44}{figure.caption.28}\protected@file@percent }
\newlabel{fig:posproc_xbeach:comp_bathy}{{2.20}{44}{Comparaison en 2D de la bathymétrie avant (en haut) et après (en bas) calcul de Xbeach. Le haut de plage est plus élevé et les croissants sont déformés.\relax }{figure.caption.28}{}}
\@writefile{lof}{\contentsline {figure}{\numberline {2.21}{\ignorespaces Visualisation sur la bathymétrie après calcul Xbeach des crêtes (trait noir) de la barre externe et des creux de la barre externe (trait rouge). Les lignes en tiret rouge représente la largeur moyenne de la dune.\relax }}{45}{figure.caption.29}\protected@file@percent }
\newlabel{fig:posproc_xbeach:def_barre}{{2.21}{45}{Visualisation sur la bathymétrie après calcul Xbeach des crêtes (trait noir) de la barre externe et des creux de la barre externe (trait rouge). Les lignes en tiret rouge représente la largeur moyenne de la dune.\relax }{figure.caption.29}{}}
\@writefile{lof}{\contentsline {figure}{\numberline {2.22}{\ignorespaces \relax }}{45}{figure.caption.30}\protected@file@percent }
\newlabel{fig:posproc:movie_morpho}{{2.22}{45}{\relax }{figure.caption.30}{}}
\@writefile{toc}{\contentsline {chapter}{\numberline {3}Documentation pré-traitement MNT}{47}{chapter.3}\protected@file@percent }
\@writefile{lof}{\addvspace {10\p@ }}
\@writefile{lot}{\addvspace {10\p@ }}
\@writefile{toc}{\contentsline {section}{\numberline {3.1}Script pré-traitement mnt}{47}{section.3.1}\protected@file@percent }
\@writefile{lof}{\contentsline {figure}{\numberline {3.1}{\ignorespaces Organigramme du fonctionnement du script de pré-traitement mnt. Les fonctions ayant le même nom indiquent que la fonction peut intervenir à deux endroits différents indépendamment ou parallèlement dans le script.\relax }}{48}{figure.caption.31}\protected@file@percent }
\newlabel{fig:doc:preproc_function}{{3.1}{48}{Organigramme du fonctionnement du script de pré-traitement mnt. Les fonctions ayant le même nom indiquent que la fonction peut intervenir à deux endroits différents indépendamment ou parallèlement dans le script.\relax }{figure.caption.31}{}}
\@writefile{toc}{\contentsline {subsection}{\numberline {3.1.1}Lecture de la bathymétrie}{48}{subsection.3.1.1}\protected@file@percent }
\newlabel{doc:lecture_de_la_bathy}{{3.1.1}{48}{Lecture de la bathymétrie}{subsection.3.1.1}{}}
\@writefile{toc}{\contentsline {subsection}{\numberline {3.1.2}Définition de la zone d'étude}{49}{subsection.3.1.2}\protected@file@percent }
\@writefile{lof}{\contentsline {figure}{\numberline {3.2}{\ignorespaces Organigramme de la fonction de définition de zone d'étude. Paramètres d'entrés et fonction suivante.\relax }}{49}{figure.caption.32}\protected@file@percent }
\newlabel{doc:def_zone_etude}{{3.1.2}{49}{Définition de la zone d'étude}{figure.caption.32}{}}
\@writefile{toc}{\contentsline {subsection}{\numberline {3.1.3}Rotation de la zone: première possibilité d'utilisation}{50}{subsection.3.1.3}\protected@file@percent }
\newlabel{doc:premiere_rot}{{3.1.3}{50}{Rotation de la zone: première possibilité d'utilisation}{subsection.3.1.3}{}}
\@writefile{lof}{\contentsline {figure}{\numberline {3.3}{\ignorespaces Organigramme de la fonction de rotation. Paramètres d'entrés et fonction suivante.\relax }}{50}{figure.caption.33}\protected@file@percent }
\@writefile{lof}{\contentsline {figure}{\numberline {3.4}{\ignorespaces Visualisation de la première figure affichée par le module de pré-traitement dans le but de prendre connaissance de la zone bathymétrique utilisable. Et ainsi, de pouvoir définir une zone d'étude inférieure aux dimensions de la bathymétrie.\relax }}{51}{figure.caption.34}\protected@file@percent }
\newlabel{fig:bathy_raw}{{3.4}{51}{Visualisation de la première figure affichée par le module de pré-traitement dans le but de prendre connaissance de la zone bathymétrique utilisable. Et ainsi, de pouvoir définir une zone d'étude inférieure aux dimensions de la bathymétrie.\relax }{figure.caption.34}{}}
\@writefile{toc}{\contentsline {subsection}{\numberline {3.1.4}Projection: première utilisation possible}{52}{subsection.3.1.4}\protected@file@percent }
\newlabel{doc:premiere_rot}{{3.1.4}{52}{Projection: première utilisation possible}{subsection.3.1.4}{}}
\@writefile{lof}{\contentsline {figure}{\numberline {3.5}{\ignorespaces Organigramme de la fonction de projection. Paramètres d'entrés et fonction suivante.\relax }}{52}{figure.caption.35}\protected@file@percent }
\@writefile{toc}{\contentsline {subsection}{\numberline {3.1.5}Interpolation}{52}{subsection.3.1.5}\protected@file@percent }
\newlabel{doc:interp}{{3.1.5}{52}{Interpolation}{subsection.3.1.5}{}}
\@writefile{lof}{\contentsline {figure}{\numberline {3.6}{\ignorespaces Organigramme de la fonction d'interpolation. Paramètres d'entrés et fonction suivante.\relax }}{52}{figure.caption.36}\protected@file@percent }
\@writefile{lof}{\contentsline {figure}{\numberline {3.7}{\ignorespaces Schématisation de la création des subdivisions pour l'interpolation en fonction de la position des subdivisions. En vert la section carrée et en bleu des section rectangulaire. Ici 2 subdivisions sont prises par axe (x;y).\relax }}{53}{figure.caption.37}\protected@file@percent }
\newlabel{sch:creation_section}{{3.7}{53}{Schématisation de la création des subdivisions pour l'interpolation en fonction de la position des subdivisions. En vert la section carrée et en bleu des section rectangulaire. Ici 2 subdivisions sont prises par axe (x;y).\relax }{figure.caption.37}{}}
\@writefile{toc}{\contentsline {subsection}{\numberline {3.1.6}Remplacement de valeur manquante}{54}{subsection.3.1.6}\protected@file@percent }
\newlabel{remplacement_val}{{3.1.6}{54}{Remplacement de valeur manquante}{subsection.3.1.6}{}}
\@writefile{lof}{\contentsline {figure}{\numberline {3.8}{\ignorespaces Organigramme de la fonction de remplacement de valeur manquante. Paramètres d'entrés et fonction suivante.\relax }}{54}{figure.caption.38}\protected@file@percent }
\@writefile{toc}{\contentsline {subsection}{\numberline {3.1.7}Rotation de la zone: deuxième possibilité d'utilisation}{56}{subsection.3.1.7}\protected@file@percent }
\@writefile{lof}{\contentsline {figure}{\numberline {3.9}{\ignorespaces Organigramme de la fonction de rotation. Paramètres d'entrés et fonction suivante.\relax }}{56}{figure.caption.39}\protected@file@percent }
\@writefile{toc}{\contentsline {subsection}{\numberline {3.1.8}Projection: deuxième possibilité d'utilisation}{56}{subsection.3.1.8}\protected@file@percent }
\@writefile{lof}{\contentsline {figure}{\numberline {3.10}{\ignorespaces Organigramme de la fonction de projection. Paramètres d'entrés et fonction suivante.\relax }}{56}{figure.caption.40}\protected@file@percent }
\@writefile{toc}{\contentsline {subsection}{\numberline {3.1.9}Filtrage}{57}{subsection.3.1.9}\protected@file@percent }
\newlabel{filtrage_script_preproc}{{3.1.9}{57}{Filtrage}{subsection.3.1.9}{}}
\@writefile{lof}{\contentsline {figure}{\numberline {3.11}{\ignorespaces Organigramme de la fonction de filtrage et fonction suivante.\relax }}{57}{figure.caption.41}\protected@file@percent }
\@writefile{toc}{\contentsline {subsection}{\numberline {3.1.10}Coordonnées local}{57}{subsection.3.1.10}\protected@file@percent }
\@writefile{lof}{\contentsline {figure}{\numberline {3.12}{\ignorespaces Organigramme de la fonction de coordonnées locale et fonction suivante.\relax }}{57}{figure.caption.42}\protected@file@percent }
\@writefile{toc}{\contentsline {subsection}{\numberline {3.1.11}Calcul du gradient bathymétrique}{58}{subsection.3.1.11}\protected@file@percent }
\@writefile{lof}{\contentsline {figure}{\numberline {3.13}{\ignorespaces Organigramme de la fonction de filtrage et fonction suivante.\relax }}{58}{figure.caption.43}\protected@file@percent }
\@writefile{lof}{\contentsline {figure}{\numberline {3.14}{\ignorespaces Visualisation du calcul du gradient de la bathymétrie.\relax }}{59}{figure.caption.44}\protected@file@percent }
\newlabel{fig:calGradH}{{3.14}{59}{Visualisation du calcul du gradient de la bathymétrie.\relax }{figure.caption.44}{}}
\@writefile{toc}{\contentsline {subsection}{\numberline {3.1.12}Inversion Bathymétrique}{60}{subsection.3.1.12}\protected@file@percent }
\@writefile{toc}{\contentsline {subsection}{\numberline {3.1.13}Sauvegarde}{60}{subsection.3.1.13}\protected@file@percent }
\@writefile{toc}{\contentsline {section}{\numberline {3.2}Script analyse pré-traitement mnt}{60}{section.3.2}\protected@file@percent }
\@writefile{toc}{\contentsline {subsection}{\numberline {3.2.1}Lecture de la bathymétrie}{60}{subsection.3.2.1}\protected@file@percent }
\citation{hallermeierUSESCALCULATEDLIMITa}
\@writefile{lof}{\contentsline {figure}{\numberline {3.15}{\ignorespaces Organigramme du fonctionnement du script d'analyse pré-traitement MNT\relax }}{61}{figure.caption.46}\protected@file@percent }
\newlabel{lecture_de_la_bathymetrie_analyse}{{3.2.1}{61}{Lecture de la bathymétrie}{figure.caption.46}{}}
\@writefile{toc}{\contentsline {subsection}{\numberline {3.2.2}Analyse cross-shore}{61}{subsection.3.2.2}\protected@file@percent }
\newlabel{analyse_cross_shore}{{3.2.2}{61}{Analyse cross-shore}{subsection.3.2.2}{}}
\@writefile{toc}{\contentsline {subsubsection}{\numberline {3.2.2.1}Mean Profile}{61}{subsubsection.3.2.2.1}\protected@file@percent }
\newlabel{doc:mean_profile}{{3.2.2.1}{61}{Mean Profile}{subsubsection.3.2.2.1}{}}
\@writefile{toc}{\contentsline {subsubsection}{\numberline {3.2.2.2}Profondeur de fermeture: DOC}{62}{subsubsection.3.2.2.2}\protected@file@percent }
\@writefile{toc}{\contentsline {subsubsection}{\numberline {3.2.2.3}Définition du niveau vertical}{62}{subsubsection.3.2.2.3}\protected@file@percent }
\newlabel{doc:definition_du_niveau_vertical}{{3.2.2.3}{62}{Définition du niveau vertical}{subsubsection.3.2.2.3}{}}
\@writefile{toc}{\contentsline {subsubsection}{\numberline {3.2.2.4}Profil de Dean}{63}{subsubsection.3.2.2.4}\protected@file@percent }
\newlabel{profil_de_dean}{{3.2.2.4}{63}{Profil de Dean}{subsubsection.3.2.2.4}{}}
\citation{masselink1993}
\@writefile{lof}{\contentsline {figure}{\numberline {3.16}{\ignorespaces Visualisation des marqueurs d'intérêts (HTL, LTL, zero$\_$hydrographique, DOC) et des profils cross-shore ajustés par un profil de Dean, moyen et tous les profils cross-shore de la bathymétrie.\relax }}{64}{figure.caption.47}\protected@file@percent }
\newlabel{fig:doc:analyse_cross_shore}{{3.16}{64}{Visualisation des marqueurs d'intérêts (HTL, LTL, zero$\_$hydrographique, DOC) et des profils cross-shore ajustés par un profil de Dean, moyen et tous les profils cross-shore de la bathymétrie.\relax }{figure.caption.47}{}}
\@writefile{toc}{\contentsline {subsection}{\numberline {3.2.3}Modèle: déferlement}{64}{subsection.3.2.3}\protected@file@percent }
\newlabel{modele:deferlement}{{3.2.3}{64}{Modèle: déferlement}{subsection.3.2.3}{}}
\@writefile{toc}{\contentsline {subsection}{\numberline {3.2.4}Modèle: Type de plage}{65}{subsection.3.2.4}\protected@file@percent }
\newlabel{modele:type_de_plage}{{3.2.4}{65}{Modèle: Type de plage}{subsection.3.2.4}{}}
\@writefile{toc}{\contentsline {section}{\numberline {3.3}Script modification bathymétrique}{65}{section.3.3}\protected@file@percent }
\citation{deanEquilibriumBeachProfiles1991}
\@writefile{lof}{\contentsline {figure}{\numberline {3.17}{\ignorespaces Organigramme du fonctionnement du script de modification bathymétrique.\relax }}{66}{figure.caption.48}\protected@file@percent }
\@writefile{toc}{\contentsline {subsection}{\numberline {3.3.1}Lecture de la bathymétrie}{66}{subsection.3.3.1}\protected@file@percent }
\@writefile{toc}{\contentsline {subsection}{\numberline {3.3.2}Analyse du profil cross-shore}{66}{subsection.3.3.2}\protected@file@percent }
\@writefile{toc}{\contentsline {subsection}{\numberline {3.3.3}Profile de Dean}{66}{subsection.3.3.3}\protected@file@percent }
\@writefile{toc}{\contentsline {subsection}{\numberline {3.3.4}Ajout de Barres et croissant}{66}{subsection.3.3.4}\protected@file@percent }
\@writefile{toc}{\contentsline {subsection}{\numberline {3.3.5}Filtrage}{68}{subsection.3.3.5}\protected@file@percent }
\@writefile{toc}{\contentsline {chapter}{\numberline {4}Autre exemple d'utilisation.}{69}{chapter.4}\protected@file@percent }
\@writefile{lof}{\addvspace {10\p@ }}
\@writefile{lot}{\addvspace {10\p@ }}
\@writefile{toc}{\contentsline {subsection}{\numberline {4.0.1}Pré-traitement MNT: Gravelines}{69}{subsection.4.0.1}\protected@file@percent }
\@writefile{lof}{\contentsline {figure}{\numberline {4.1}{\ignorespaces Visualisation de la bathymétrie brute lue dans le fichier ".grd". La zone d'étude définit est représentée par le rectangle rouge.\relax }}{70}{figure.caption.49}\protected@file@percent }
\newlabel{fig:grav:bathy_raw}{{4.1}{70}{Visualisation de la bathymétrie brute lue dans le fichier ".grd". La zone d'étude définit est représentée par le rectangle rouge.\relax }{figure.caption.49}{}}
\citation{deanEquilibriumBeachProfiles1991}
\citation{deanEquilibriumBeachProfiles1991}
\@writefile{lof}{\contentsline {figure}{\numberline {4.2}{\ignorespaces (a) Visualisation de la bathymétrie en 2D à la fin du script de prétraitement et avant inversion. (b) Visualisation de la bathymétrie en 3D à la fin du script de prétraitement et avant inversion. Les deux figures possèdent l'origine au large et leur profondeur négative.\relax }}{71}{figure.caption.50}\protected@file@percent }
\newlabel{fig:grav:inv_bathymetry}{{4.2}{71}{(a) Visualisation de la bathymétrie en 2D à la fin du script de prétraitement et avant inversion. (b) Visualisation de la bathymétrie en 3D à la fin du script de prétraitement et avant inversion. Les deux figures possèdent l'origine au large et leur profondeur négative.\relax }{figure.caption.50}{}}
\@writefile{toc}{\contentsline {subsection}{\numberline {4.0.2}Analyse bathymétrique: Gravelines}{71}{subsection.4.0.2}\protected@file@percent }
\newlabel{Analyse bathymétrique: Gravelines}{{4.0.2}{71}{Analyse bathymétrique: Gravelines}{subsection.4.0.2}{}}
\citation{bosboomCoastalDynamics2021a}
\citation{bosboomCoastalDynamics2021a}
\@writefile{lof}{\contentsline {figure}{\numberline {4.3}{\ignorespaces Visualisation du profil cross-shore de la plage de Gravelines avec le profil moyen (trait noir), un ajustement avec le profils de Dean (\citet  {deanEquilibriumBeachProfiles1991}) (trait vert), les profils le long du long-shore (trait gris) et un nombre réduit de marqueurs permettant de définir la zone morphodynamique active entre la valeur du DOC (trait bleu) et la valeur du HTL (trait rouge) définit à partir de la norme zéro hydrographique. La position du zéro hydrographique (trait pointillé gris) est calculé en fonction de la plage, permettant le calcul de LTL (trait pointillé bleu).\relax }}{72}{figure.caption.51}\protected@file@percent }
\newlabel{fig:grav:cross-shore_analyse}{{4.3}{72}{Visualisation du profil cross-shore de la plage de Gravelines avec le profil moyen (trait noir), un ajustement avec le profils de Dean (\citet {deanEquilibriumBeachProfiles1991}) (trait vert), les profils le long du long-shore (trait gris) et un nombre réduit de marqueurs permettant de définir la zone morphodynamique active entre la valeur du DOC (trait bleu) et la valeur du HTL (trait rouge) définit à partir de la norme zéro hydrographique. La position du zéro hydrographique (trait pointillé gris) est calculé en fonction de la plage, permettant le calcul de LTL (trait pointillé bleu).\relax }{figure.caption.51}{}}
\citation{masselink1993}
\citation{masselink1993}
\citation{bosboomCoastalDynamics2021}
\@writefile{lof}{\contentsline {figure}{\numberline {4.4}{\ignorespaces Modèle permettant la définition du type de rupture de vagues (breaker waves) en fonction de la hauteur d'eau au point de rupture $H_b$ et d'un paramètre de similarité en accord avec \citet  {bosboomCoastalDynamics2021a}.\relax }}{73}{figure.caption.52}\protected@file@percent }
\newlabel{fig:grav:breaker_type}{{4.4}{73}{Modèle permettant la définition du type de rupture de vagues (breaker waves) en fonction de la hauteur d'eau au point de rupture $H_b$ et d'un paramètre de similarité en accord avec \citet {bosboomCoastalDynamics2021a}.\relax }{figure.caption.52}{}}
\@writefile{lof}{\contentsline {figure}{\numberline {4.5}{\ignorespaces Evolution du type de plage en accord avec le modèle proposé par \citet  {masselink1993} pour deux types de conditions: Tempête et moyenne.\relax }}{73}{figure.caption.53}\protected@file@percent }
\newlabel{fig:grav:type_de_plage}{{4.5}{73}{Evolution du type de plage en accord avec le modèle proposé par \citet {masselink1993} pour deux types de conditions: Tempête et moyenne.\relax }{figure.caption.53}{}}
\citation{deanEquilibriumBeachProfiles1991}
\citation{deanEquilibriumBeachProfiles1991}
\citation{deanEquilibriumBeachProfiles1991}
\@writefile{toc}{\contentsline {subsection}{\numberline {4.0.3}Modification bathymétrique: Gravelines}{74}{subsection.4.0.3}\protected@file@percent }
\@writefile{lof}{\contentsline {figure}{\numberline {4.6}{\ignorespaces Comparaison du profil cross-shore moyen de la bathymétrie créée artificiellement (trait rouge) sans barre(s) et du profil cross-shore central de la bathymétrie initiale (trait noire).\relax }}{74}{figure.caption.54}\protected@file@percent }
\newlabel{fig_modif_bathy:grav:comp_profile_cross_shore}{{4.6}{74}{Comparaison du profil cross-shore moyen de la bathymétrie créée artificiellement (trait rouge) sans barre(s) et du profil cross-shore central de la bathymétrie initiale (trait noire).\relax }{figure.caption.54}{}}
\@writefile{lof}{\contentsline {figure}{\numberline {4.7}{\ignorespaces Bathymétrie en 3D obtenue après l'application d'un profil de Dean (\citet  {deanEquilibriumBeachProfiles1991}) sur tout les profils cross-shore.\relax }}{75}{figure.caption.55}\protected@file@percent }
\newlabel{fig:grav:bathy3Dfit}{{4.7}{75}{Bathymétrie en 3D obtenue après l'application d'un profil de Dean (\citet {deanEquilibriumBeachProfiles1991}) sur tout les profils cross-shore.\relax }{figure.caption.55}{}}
\@writefile{lof}{\contentsline {figure}{\numberline {4.8}{\ignorespaces Visualisation en 2D de la bathymétrie remodelée sans la présence de barre et sans filtrage supplémentaire.\relax }}{76}{figure.caption.56}\protected@file@percent }
\newlabel{fig:grav:bathy2Dfit}{{4.8}{76}{Visualisation en 2D de la bathymétrie remodelée sans la présence de barre et sans filtrage supplémentaire.\relax }{figure.caption.56}{}}
\citation{bosboomCoastalDynamics2021a}
\citation{masselink1993}
\@writefile{toc}{\contentsline {chapter}{\numberline {5}Conclusion et Ouvertures}{77}{chapter.5}\protected@file@percent }
\@writefile{lof}{\addvspace {10\p@ }}
\@writefile{lot}{\addvspace {10\p@ }}
\@writefile{toc}{\contentsline {chapter}{\numberline {6}Annexe}{78}{chapter.6}\protected@file@percent }
\@writefile{lof}{\addvspace {10\p@ }}
\@writefile{lot}{\addvspace {10\p@ }}
\@writefile{toc}{\contentsline {section}{\numberline {6.1}Annexe A: Librairie MNT}{78}{section.6.1}\protected@file@percent }
\newlabel{annexeA}{{6.1}{78}{Annexe A: Librairie MNT}{section.6.1}{}}
\@writefile{toc}{\contentsline {subsection}{\numberline {6.1.1}Indata: lecture de données}{78}{subsection.6.1.1}\protected@file@percent }
\newlabel{libs:indata}{{6.1.1}{78}{Indata: lecture de données}{subsection.6.1.1}{}}
\@writefile{toc}{\contentsline {subsection}{\numberline {6.1.2}Rotation: Rotation de la zone d'étude}{79}{subsection.6.1.2}\protected@file@percent }
\newlabel{libs:rotation}{{6.1.2}{79}{Rotation: Rotation de la zone d'étude}{subsection.6.1.2}{}}
\@writefile{toc}{\contentsline {subsection}{\numberline {6.1.3}Projection: changement de système de coordonnée}{80}{subsection.6.1.3}\protected@file@percent }
\newlabel{libs:proj}{{6.1.3}{80}{Projection: changement de système de coordonnée}{subsection.6.1.3}{}}
\@writefile{toc}{\contentsline {subsection}{\numberline {6.1.4}Interpolation: Interpolation des données}{81}{subsection.6.1.4}\protected@file@percent }
\newlabel{libs:interpolation}{{6.1.4}{81}{Interpolation: Interpolation des données}{subsection.6.1.4}{}}
\@writefile{toc}{\contentsline {subsection}{\numberline {6.1.5}Remplacement de valeurs manquantes}{85}{subsection.6.1.5}\protected@file@percent }
\newlabel{libs:remplacement_de_valeur}{{6.1.5}{85}{Remplacement de valeurs manquantes}{subsection.6.1.5}{}}
\@writefile{toc}{\contentsline {subsection}{\numberline {6.1.6}Out data: sauvegarde des données}{89}{subsection.6.1.6}\protected@file@percent }
\newlabel{libs:output}{{6.1.6}{89}{Out data: sauvegarde des données}{subsection.6.1.6}{}}
\@writefile{toc}{\contentsline {section}{\numberline {6.2}Annexe B: Figures pré-traitement plage du Truc Vert}{93}{section.6.2}\protected@file@percent }
\newlabel{annexe_figure_pretraitement}{{6.2}{93}{Annexe B: Figures pré-traitement plage du Truc Vert}{section.6.2}{}}
\@writefile{lof}{\contentsline {figure}{\numberline {6.1}{\ignorespaces Visualisation en 3D de la bathymétrie en 2D (\ref  {fig_pretrait:bathy_local_coord}) avant l'étape 'inversion bathymétrique.\relax }}{93}{figure.caption.57}\protected@file@percent }
\@writefile{lof}{\contentsline {figure}{\numberline {6.2}{\ignorespaces Bathymétrie de sortie du script pré-traitement en 2D avec les profondeurs positives.\relax }}{93}{figure.caption.58}\protected@file@percent }
\citation{senechalWaveRunupExtreme2010}
\citation{senechalWaveRunupExtreme2010}
\@writefile{lof}{\contentsline {figure}{\numberline {6.3}{\ignorespaces Visualisation en 3D de la bathymétrie en 2D de sortie du script de pré-traitement, avec les profondeurs positives.\relax }}{94}{figure.caption.59}\protected@file@percent }
\@writefile{toc}{\contentsline {section}{\numberline {6.3}Post-traitement: Morphodynamique}{94}{section.6.3}\protected@file@percent }
\newlabel{annexe:morphodynamique_comp}{{6.3}{94}{Post-traitement: Morphodynamique}{section.6.3}{}}
\@writefile{lof}{\contentsline {figure}{\numberline {6.4}{\ignorespaces Comparaison bathymétrique en 2D avec les contours d'altitude identique tracé. A gauche la bathymétrie avant calcul et à droite la bathymétrie après calcul.\relax }}{94}{figure.caption.60}\protected@file@percent }
\@writefile{lof}{\contentsline {figure}{\numberline {6.5}{\ignorespaces Visualisation de la bathymétrie du 03/03/08 (avant calcul Xbeach) avec les lignes de mêmes altitudes et la position des capteurs utilisés lors de la campagne ECORS (\citet  {senechalWaveRunupExtreme2010})\relax }}{95}{figure.caption.61}\protected@file@percent }
\@writefile{toc}{\contentsline {section}{\numberline {6.4}Fichier de configuration pré-traitement: Gravelines}{95}{section.6.4}\protected@file@percent }
\newlabel{fichier_config_gravelines}{{6.4}{95}{Fichier de configuration pré-traitement: Gravelines}{section.6.4}{}}
\@writefile{toc}{\contentsline {section}{\numberline {6.5}Scripts pré-traitement}{97}{section.6.5}\protected@file@percent }
\@writefile{toc}{\contentsline {subsection}{\numberline {6.5.1}Pré-traitement MNT}{97}{subsection.6.5.1}\protected@file@percent }
\newlabel{annexe:pre_traitement_mnt}{{6.5.1}{97}{Pré-traitement MNT}{subsection.6.5.1}{}}
\@writefile{toc}{\contentsline {subsection}{\numberline {6.5.2}Analyse bathymétrique MNT}{107}{subsection.6.5.2}\protected@file@percent }
\newlabel{annexe:script:analyse_bathy}{{6.5.2}{107}{Analyse bathymétrique MNT}{subsection.6.5.2}{}}
\@writefile{toc}{\contentsline {subsection}{\numberline {6.5.3}Modification bathymétrique MNT}{112}{subsection.6.5.3}\protected@file@percent }
\newlabel{annexe:script:modif_bathy_mnt}{{6.5.3}{112}{Modification bathymétrique MNT}{subsection.6.5.3}{}}
\bibdata{biblio}
\bibcite{zotero-1}{{1}{}{{zot}}{{}}}
\bibcite{bosboomCoastalDynamics2021}{{2}{2021{a}}{{\textit  {Bosboom and Stive}}}{{}}}
\bibcite{bosboomCoastalDynamics2021a}{{3}{2021{b}}{{\textit  {Bosboom and Stive}}}{{}}}
\bibcite{bruneauFieldObservationsEvolving2009}{{4}{2009{a}}{{\textit  {Bruneau et~al.}}}{{\textit  {Bruneau, Castelle, Bonneton, Pedreros, Almar, Bonneton, Bretel, Parisot, and Sénéchal}}}}
\bibcite{bruneauFieldObservationsEvolving2009a}{{5}{2009{b}}{{\textit  {Bruneau et~al.}}}{{\textit  {Bruneau, Castelle, Bonneton, Pedreros, Almar, Bonneton, Bretel, Parisot, and Sénéchal}}}}
\bibcite{bruneauFieldObservationsEvolving2009b}{{6}{2009{c}}{{\textit  {Bruneau et~al.}}}{{\textit  {Bruneau, Castelle, Bonneton, Pedreros, Almar, Bonneton, Bretel, Parisot, and Sénéchal}}}}
\bibcite{chauchatLectureNotesTwophase}{{7}{2018}{{\textit  {Chauchat}}}{{}}}
\bibcite{chauchatXBEACHSimulationsMorphodynamique}{{8}{}{{\textit  {Chauchat and Bonamy}}}{{}}}
\bibcite{deanEquilibriumBeachProfiles1991}{{9}{1991}{{\textit  {Dean}}}{{}}}
\bibcite{Sandve2013}{{10}{2013}{{\textit  {Geir Kjetil~Sandve}}}{{}}}
\bibcite{gonzalezEquilibriumBeachProfile1999}{{11}{1999}{{\textit  {González et~al.}}}{{\textit  {González, Medina, and Losada}}}}
\bibcite{hallermeierUSESCALCULATEDLIMIT}{{12}{a}{{\textit  {Hallermeier}}}{{}}}
\bibcite{hallermeierUSESCALCULATEDLIMITa}{{13}{b}{{\textit  {Hallermeier}}}{{}}}
\bibcite{Desquilbet2019}{{14}{2019}{{\textit  {Loïc~Desquilbet}}}{{}}}
\bibcite{marchesielloTridimensionalRipCurrent2015}{{15}{2015{a}}{{\textit  {Marchesiello et~al.}}}{{\textit  {Marchesiello, Benshila, Almar, Uchiyama, McWilliams, and Shchepetkin}}}}
\bibcite{marchesielloTridimensionalRipCurrent2015a}{{16}{2015{b}}{{\textit  {Marchesiello et~al.}}}{{\textit  {Marchesiello, Benshila, Almar, Uchiyama, McWilliams, and Shchepetkin}}}}
\bibcite{marshAssessmentDepthClosure1999}{{17}{1999}{{\textit  {Marsh et~al.}}}{{\textit  {Marsh, Nicholls, Kroon, and Hoekstra}}}}
\bibcite{masselink1993}{{18}{1993}{{\textit  {Masselink and Short}}}{{}}}
\bibcite{meftahChaineOutilsIntegres2004}{{19}{2004}{{\textit  {Meftah et~al.}}}{{\textit  {Meftah, Pons, Gomi, Sabatier, and Sergent}}}}
\bibcite{nichollsDepthClosureImproving1999}{{20}{1999}{{\textit  {Nicholls et~al.}}}{{\textit  {Nicholls, Larson, Capobianco, and Birkemeier}}}}
\bibcite{senechalWaveRunupExtreme2010}{{21}{2010}{{\textit  {Senechal et~al.}}}{{\textit  {Senechal, Coco, Bryan, and Holman}}}}
\bibcite{smitDelftUniversityTechnology}{{22}{}{{\textit  {Smit et~al.}}}{{\textit  {Smit, Stelling, and Roelvink}}}}
\bibcite{tissierFieldMeasurementsNonlinear2011}{{23}{2011}{{\textit  {Tissier et~al.}}}{{\textit  {Tissier, Bonneton, Almar, Castelle, Bonneton, and Nahon}}}}
\bibcite{varingDISCUSSIONWAVEBREAKING}{{24}{}{{\textit  {Varing et~al.}}}{{\textit  {Varing, Filipot, Roeber, Duarte, and Yates-Michelin}}}}
\bibcite{wrightMORPHODYNAMICVARIABILITYSURFa}{{25}{}{{\textit  {Wright and Short}}}{{}}}
\bibcite{wrightMORPHODYNAMICVARIABILITYSURF}{{26}{1984}{{\textit  {Wright and Short}}}{{}}}
\citation{*}
\gdef \@abspage@last{125}
